13 & 72 & 36 & 35 & 2.057142857142857 : 1.0285714285714285 : 1 \\
14 & 77 & 38 & 37 & 2.081081081081081 : 1.027027027027027 : 1 \\
15 & 89 & 44 & 43 & 2.0697674418604652 : 1.0232558139534884 : 1 \\
16 & 100 & 49 & 49 & 2.0408163265306123 : 1.0 : 1 \\
17 & 110 & 54 & 54 & 2.037037037037037 : 1.0 : 1 \\
18 & 112 & 56 & 56 & 2.0 : 1.0 : 1 \\
19 & 121 & 58 & 61 & 1.9836065573770492 : 0.9508196721311475 : 1 \\
20 & 134 & 65 & 67 & 2.0 : 0.9701492537313433 : 1 \\
21 & 133 & 66 & 68 & 1.9558823529411764 : 0.9705882352941176 : 1 \\
22 & 148 & 73 & 73 & 2.0 : 1.0 : 1 \\
23 & 158 & 77 & 76 & 2.0789473684210527 : 1.013157894736842 : 1 \\
24 & 167 & 82 & 82 & 2.0365853658536586 : 1.0 : 1 \\
25 & 172 & 85 & 83 & 2.072289156626506 : 1.0240963855421688 : 1 \\
26 & 184 & 88 & 88 & 2.090909090909091 : 1.0 : 1 \\
27 & 190 & 94 & 94 & 2.021276595744681 : 1.0 : 1 \\
28 & 197 & 96 & 94 & 2.095744680851064 : 1.0212765957446808 : 1 \\
29 & 223 & 108 & 109 & 2.0458715596330275 : 0.9908256880733946 : 1 \\
30 & 226 & 110 & 113 & 2.0 : 0.9734513274336283 : 1 \\
31 & 234 & 113 & 119 & 1.9663865546218486 : 0.9495798319327731 : 1 \\
32 & 242 & 120 & 118 & 2.0508474576271185 : 1.0169491525423728 : 1 \\
33 & 261 & 129 & 129 & 2.0232558139534884 : 1.0 : 1 \\
34 & 258 & 126 & 126 & 2.0476190476190474 : 1.0 : 1 \\
35 & 260 & 126 & 126 & 2.0634920634920637 : 1.0 : 1 \\
36 & 267 & 133 & 132 & 2.022727272727273 : 1.0075757575757576 : 1 \\
37 & 274 & 135 & 135 & 2.0296296296296297 : 1.0 : 1 \\
38 & 287 & 141 & 143 & 2.006993006993007 : 0.986013986013986 : 1 \\
39 & 309 & 151 & 151 & 2.0463576158940397 : 1.0 : 1 \\
40 & 326 & 160 & 160 & 2.0375 : 1.0 : 1 \\
41 & 317 & 154 & 158 & 2.0063291139240507 : 0.9746835443037974 : 1 \\
42 & 319 & 155 & 157 & 2.031847133757962 : 0.9872611464968153 : 1 \\
43 & 344 & 173 & 174 & 1.9770114942528736 : 0.9942528735632183 : 1 \\
44 & 358 & 181 & 185 & 1.9351351351351351 : 0.9783783783783784 : 1 \\
45 & 362 & 180 & 183 & 1.9781420765027322 : 0.9836065573770492 : 1 \\
46 & 367 & 185 & 186 & 1.9731182795698925 : 0.9946236559139785 : 1 \\
47 & 364 & 183 & 184 & 1.9782608695652173 : 0.9945652173913043 : 1 \\
48 & 391 & 198 & 200 & 1.955 : 0.99 : 1 \\
49 & 400 & 201 & 205 & 1.951219512195122 : 0.9804878048780488 : 1 \\
50 & 410 & 205 & 207 & 1.9806763285024154 : 0.9903381642512077 : 1 \\
51 & 425 & 213 & 213 & 1.9953051643192488 : 1.0 : 1 \\
52 & 428 & 217 & 221 & 1.9366515837104072 : 0.9819004524886877 : 1 \\
53 & 444 & 224 & 227 & 1.9559471365638768 : 0.986784140969163 : 1 \\
54 & 451 & 228 & 230 & 1.9608695652173913 : 0.991304347826087 : 1 \\
55 & 475 & 239 & 242 & 1.962809917355372 : 0.987603305785124 : 1 \\
56 & 462 & 232 & 232 & 1.9913793103448276 : 1.0 : 1 \\
57 & 476 & 243 & 247 & 1.9271255060728745 : 0.9838056680161943 : 1 \\
58 & 471 & 229 & 231 & 2.038961038961039 : 0.9913419913419913 : 1 \\
59 & 482 & 243 & 246 & 1.9593495934959348 : 0.9878048780487805 : 1 \\
60 & 518 & 263 & 291 & 1.7800687285223367 : 0.9037800687285223 : 1 \\