13 & 76 & 38 & 39 & 1.9487179487179487 : 0.9743589743589743 : 1 \\
14 & 79 & 39 & 39 & 2.0256410256410255 : 1.0 : 1 \\
15 & 88 & 43 & 41 & 2.1463414634146343 : 1.048780487804878 : 1 \\
16 & 99 & 48 & 49 & 2.020408163265306 : 0.9795918367346939 : 1 \\
17 & 111 & 55 & 52 & 2.1346153846153846 : 1.0576923076923077 : 1 \\
18 & 117 & 57 & 57 & 2.0526315789473686 : 1.0 : 1 \\
19 & 121 & 59 & 59 & 2.0508474576271185 : 1.0 : 1 \\
20 & 125 & 61 & 63 & 1.9841269841269842 : 0.9682539682539683 : 1 \\
21 & 139 & 68 & 71 & 1.9577464788732395 : 0.9577464788732394 : 1 \\
22 & 145 & 71 & 71 & 2.0422535211267605 : 1.0 : 1 \\
23 & 155 & 76 & 78 & 1.9871794871794872 : 0.9743589743589743 : 1 \\
24 & 161 & 79 & 80 & 2.0125 : 0.9875 : 1 \\
25 & 175 & 86 & 87 & 2.0114942528735633 : 0.9885057471264368 : 1 \\
26 & 186 & 89 & 91 & 2.043956043956044 : 0.978021978021978 : 1 \\
27 & 189 & 92 & 93 & 2.032258064516129 : 0.989247311827957 : 1 \\
28 & 194 & 93 & 96 & 2.0208333333333335 : 0.96875 : 1 \\
29 & 217 & 104 & 106 & 2.047169811320755 : 0.9811320754716981 : 1 \\
30 & 227 & 110 & 111 & 2.045045045045045 : 0.990990990990991 : 1 \\
31 & 240 & 116 & 119 & 2.0168067226890756 : 0.9747899159663865 : 1 \\
32 & 256 & 123 & 124 & 2.064516129032258 : 0.9919354838709677 : 1 \\
33 & 255 & 125 & 126 & 2.0238095238095237 : 0.9920634920634921 : 1 \\
34 & 253 & 123 & 124 & 2.0403225806451615 : 0.9919354838709677 : 1 \\
35 & 254 & 123 & 125 & 2.032 : 0.984 : 1 \\
36 & 279 & 138 & 139 & 2.0071942446043165 : 0.9928057553956835 : 1 \\
37 & 289 & 140 & 142 & 2.035211267605634 : 0.9859154929577465 : 1 \\
38 & 301 & 146 & 148 & 2.0337837837837838 : 0.9864864864864865 : 1 \\
39 & 302 & 147 & 149 & 2.0268456375838926 : 0.9865771812080537 : 1 \\
40 & 314 & 151 & 154 & 2.038961038961039 : 0.9805194805194806 : 1 \\
41 & 332 & 163 & 164 & 2.024390243902439 : 0.9939024390243902 : 1 \\
42 & 330 & 161 & 164 & 2.0121951219512195 : 0.9817073170731707 : 1 \\
43 & 339 & 166 & 169 & 2.0059171597633134 : 0.9822485207100592 : 1 \\
44 & 363 & 180 & 183 & 1.9836065573770492 : 0.9836065573770492 : 1 \\
45 & 351 & 175 & 177 & 1.9830508474576272 : 0.9887005649717514 : 1 \\
46 & 388 & 190 & 191 & 2.031413612565445 : 0.9947643979057592 : 1 \\
47 & 398 & 194 & 196 & 2.0306122448979593 : 0.9897959183673469 : 1 \\
48 & 399 & 195 & 198 & 2.015151515151515 : 0.9848484848484849 : 1 \\
49 & 411 & 205 & 207 & 1.9855072463768115 : 0.9903381642512077 : 1 \\
50 & 425 & 210 & 212 & 2.0047169811320753 : 0.9905660377358491 : 1 \\
51 & 429 & 210 & 213 & 2.0140845070422535 : 0.9859154929577465 : 1 \\
52 & 450 & 227 & 230 & 1.9565217391304348 : 0.9869565217391304 : 1 \\
53 & 433 & 217 & 219 & 1.9771689497716896 : 0.9908675799086758 : 1 \\
54 & 456 & 229 & 231 & 1.974025974025974 : 0.9913419913419913 : 1 \\
55 & 469 & 236 & 238 & 1.9705882352941178 : 0.9915966386554622 : 1 \\
56 & 485 & 244 & 245 & 1.9795918367346939 : 0.9959183673469387 : 1 \\
57 & 476 & 236 & 237 & 2.0084388185654007 : 0.9957805907172996 : 1 \\
58 & 493 & 247 & 250 & 1.972 : 0.988 : 1 \\
59 & 497 & 246 & 249 & 1.9959839357429718 : 0.9879518072289156 : 1 \\
60 & 525 & 263 & 264 & 1.9886363636363635 : 0.9962121212121212 : 1 \\