13 & 66 & 37 & 35 & 1.8857142857142857 : 1.0571428571428572 : 1 \\
14 & 75 & 41 & 38 & 1.9736842105263157 : 1.0789473684210527 : 1 \\
15 & 80 & 45 & 43 & 1.8604651162790697 : 1.0465116279069768 : 1 \\
16 & 93 & 50 & 49 & 1.8979591836734695 : 1.0204081632653061 : 1 \\
17 & 98 & 55 & 53 & 1.849056603773585 : 1.0377358490566038 : 1 \\
18 & 105 & 58 & 58 & 1.8103448275862069 : 1.0 : 1 \\
19 & 113 & 60 & 58 & 1.9482758620689655 : 1.0344827586206897 : 1 \\
20 & 131 & 71 & 68 & 1.9264705882352942 : 1.0441176470588236 : 1 \\
21 & 132 & 73 & 73 & 1.8082191780821917 : 1.0 : 1 \\
22 & 144 & 81 & 79 & 1.8227848101265822 : 1.0253164556962024 : 1 \\
23 & 146 & 81 & 78 & 1.8717948717948718 : 1.0384615384615385 : 1 \\
24 & 147 & 83 & 85 & 1.7294117647058824 : 0.9764705882352941 : 1 \\
25 & 163 & 91 & 90 & 1.8111111111111111 : 1.011111111111111 : 1 \\
26 & 166 & 94 & 91 & 1.8241758241758241 : 1.032967032967033 : 1 \\
27 & 171 & 96 & 100 & 1.71 : 0.96 : 1 \\
28 & 192 & 106 & 109 & 1.761467889908257 : 0.9724770642201835 : 1 \\
29 & 196 & 109 & 109 & 1.798165137614679 : 1.0 : 1 \\
30 & 208 & 117 & 117 & 1.7777777777777777 : 1.0 : 1 \\
31 & 227 & 125 & 123 & 1.8455284552845528 : 1.016260162601626 : 1 \\
32 & 214 & 122 & 127 & 1.68503937007874 : 0.9606299212598425 : 1 \\
33 & 236 & 133 & 135 & 1.7481481481481482 : 0.9851851851851852 : 1 \\
34 & 233 & 133 & 132 & 1.7651515151515151 : 1.0075757575757576 : 1 \\
35 & 248 & 140 & 142 & 1.7464788732394365 : 0.9859154929577465 : 1 \\
36 & 260 & 145 & 152 & 1.7105263157894737 : 0.9539473684210527 : 1 \\
37 & 262 & 150 & 146 & 1.7945205479452055 : 1.0273972602739727 : 1 \\
38 & 284 & 159 & 160 & 1.775 : 0.99375 : 1 \\
39 & 276 & 155 & 155 & 1.7806451612903227 : 1.0 : 1 \\
40 & 299 & 170 & 169 & 1.7692307692307692 : 1.0059171597633136 : 1 \\
41 & 309 & 173 & 171 & 1.8070175438596492 : 1.0116959064327486 : 1 \\
42 & 314 & 178 & 176 & 1.7840909090909092 : 1.0113636363636365 : 1 \\
43 & 329 & 185 & 183 & 1.7978142076502732 : 1.010928961748634 : 1 \\
44 & 331 & 190 & 188 & 1.7606382978723405 : 1.0106382978723405 : 1 \\
45 & 346 & 197 & 197 & 1.7563451776649746 : 1.0 : 1 \\
46 & 359 & 206 & 207 & 1.7342995169082125 : 0.9951690821256038 : 1 \\
47 & 358 & 203 & 203 & 1.7635467980295567 : 1.0 : 1 \\
48 & 373 & 211 & 211 & 1.7677725118483412 : 1.0 : 1 \\
49 & 383 & 217 & 218 & 1.7568807339449541 : 0.9954128440366973 : 1 \\
50 & 392 & 224 & 222 & 1.7657657657657657 : 1.009009009009009 : 1 \\
51 & 382 & 218 & 218 & 1.7522935779816513 : 1.0 : 1 \\
52 & 412 & 231 & 231 & 1.7835497835497836 : 1.0 : 1 \\
53 & 422 & 241 & 241 & 1.7510373443983402 : 1.0 : 1 \\
54 & 426 & 243 & 243 & 1.7530864197530864 : 1.0 : 1 \\
55 & 439 & 250 & 251 & 1.749003984063745 : 0.9960159362549801 : 1 \\
56 & 467 & 262 & 261 & 1.789272030651341 : 1.003831417624521 : 1 \\
57 & 459 & 264 & 262 & 1.751908396946565 : 1.0076335877862594 : 1 \\
58 & 463 & 261 & 259 & 1.7876447876447876 : 1.0077220077220077 : 1 \\
59 & 455 & 262 & 261 & 1.7432950191570882 : 1.003831417624521 : 1 \\
60 & 473 & 273 & 271 & 1.7453874538745386 : 1.007380073800738 : 1 \\
