13 & 74 & 37 & 36 & 2.0555555555555554 : 1.0277777777777777 : 1 \\
14 & 86 & 42 & 41 & 2.097560975609756 : 1.024390243902439 : 1 \\
15 & 87 & 43 & 42 & 2.0714285714285716 : 1.0238095238095237 : 1 \\
16 & 103 & 50 & 49 & 2.1020408163265305 : 1.0204081632653061 : 1 \\
17 & 110 & 54 & 53 & 2.0754716981132075 : 1.0188679245283019 : 1 \\
18 & 120 & 59 & 59 & 2.0338983050847457 : 1.0 : 1 \\
19 & 128 & 62 & 62 & 2.064516129032258 : 1.0 : 1 \\
20 & 127 & 62 & 63 & 2.015873015873016 : 0.9841269841269841 : 1 \\
21 & 135 & 66 & 66 & 2.0454545454545454 : 1.0 : 1 \\
22 & 151 & 74 & 75 & 2.013333333333333 : 0.9866666666666667 : 1 \\
23 & 148 & 73 & 76 & 1.9473684210526316 : 0.9605263157894737 : 1 \\
24 & 164 & 80 & 79 & 2.0759493670886076 : 1.0126582278481013 : 1 \\
25 & 180 & 88 & 88 & 2.0454545454545454 : 1.0 : 1 \\
26 & 186 & 90 & 89 & 2.0898876404494384 : 1.0112359550561798 : 1 \\
27 & 196 & 95 & 94 & 2.0851063829787235 : 1.0106382978723405 : 1 \\
28 & 199 & 99 & 102 & 1.9509803921568627 : 0.9705882352941176 : 1 \\
29 & 196 & 96 & 96 & 2.0416666666666665 : 1.0 : 1 \\
30 & 210 & 104 & 104 & 2.019230769230769 : 1.0 : 1 \\
31 & 221 & 108 & 108 & 2.0462962962962963 : 1.0 : 1 \\
32 & 242 & 119 & 121 & 2.0 : 0.9834710743801653 : 1 \\
33 & 251 & 122 & 121 & 2.074380165289256 : 1.0082644628099173 : 1 \\
34 & 264 & 130 & 129 & 2.046511627906977 : 1.0077519379844961 : 1 \\
35 & 272 & 133 & 137 & 1.9854014598540146 : 0.9708029197080292 : 1 \\
36 & 275 & 133 & 133 & 2.0676691729323307 : 1.0 : 1 \\
37 & 271 & 132 & 134 & 2.0223880597014925 : 0.9850746268656716 : 1 \\
38 & 293 & 146 & 146 & 2.006849315068493 : 1.0 : 1 \\
39 & 306 & 151 & 152 & 2.013157894736842 : 0.993421052631579 : 1 \\
40 & 319 & 157 & 159 & 2.006289308176101 : 0.9874213836477987 : 1 \\
41 & 319 & 159 & 159 & 2.006289308176101 : 1.0 : 1 \\
42 & 338 & 166 & 166 & 2.036144578313253 : 1.0 : 1 \\
43 & 350 & 176 & 176 & 1.9886363636363635 : 1.0 : 1 \\
44 & 339 & 169 & 169 & 2.0059171597633134 : 1.0 : 1 \\
45 & 370 & 187 & 189 & 1.9576719576719577 : 0.9894179894179894 : 1 \\
46 & 379 & 189 & 192 & 1.9739583333333333 : 0.984375 : 1 \\
47 & 381 & 191 & 191 & 1.9947643979057592 : 1.0 : 1 \\
48 & 398 & 198 & 197 & 2.020304568527919 : 1.0050761421319796 : 1 \\
49 & 391 & 197 & 199 & 1.964824120603015 : 0.9899497487437185 : 1 \\
50 & 415 & 207 & 206 & 2.0145631067961167 : 1.0048543689320388 : 1 \\
51 & 422 & 214 & 215 & 1.9627906976744185 : 0.9953488372093023 : 1 \\
52 & 433 & 218 & 219 & 1.9771689497716896 : 0.9954337899543378 : 1 \\
53 & 445 & 223 & 223 & 1.9955156950672646 : 1.0 : 1 \\
54 & 452 & 227 & 227 & 1.9911894273127753 : 1.0 : 1 \\
55 & 456 & 228 & 227 & 2.0088105726872247 : 1.0044052863436124 : 1 \\
56 & 500 & 250 & 250 & 2.0 : 1.0 : 1 \\
57 & 496 & 251 & 251 & 1.9760956175298805 : 1.0 : 1 \\
58 & 473 & 233 & 236 & 2.0042372881355934 : 0.9872881355932204 : 1 \\
59 & 515 & 257 & 258 & 1.996124031007752 : 0.9961240310077519 : 1 \\
60 & 538 & 270 & 272 & 1.9779411764705883 : 0.9926470588235294 : 1 \\
