13 1.7837837837837838 [1, 2, 4, 11, 7, 0, 3, 10, 5, 12, 6, 9, 8]
14 1.829268292682927 [10, 12, 8, 1, 2, 0, 13, 9, 6, 7, 11, 4, 5, 3]
15 1.7777777777777777 [6, 4, 14, 5, 8, 2, 7, 3, 13, 12, 1, 10, 11, 0, 9]
16 1.86 [0, 9, 3, 15, 5, 7, 13, 11, 10, 12, 14, 4, 8, 1, 6, 2]
17 1.7818181818181817 [9, 7, 11, 0, 8, 14, 5, 6, 2, 10, 16, 12, 4, 15, 1, 3, 13]
18 1.8103448275862069 [13, 17, 10, 16, 5, 12, 7, 3, 1, 15, 4, 8, 2, 0, 14, 11, 6, 9]
19 1.8833333333333333 [3, 1, 10, 13, 5, 8, 2, 0, 17, 18, 16, 15, 11, 4, 7, 14, 9, 12, 6]
20 1.8450704225352113 [9, 3, 16, 8, 1, 19, 11, 7, 17, 0, 6, 4, 14, 13, 15, 12, 10, 2, 18, 5]
21 1.8082191780821917 [0, 7, 3, 17, 9, 5, 19, 1, 12, 2, 14, 20, 15, 13, 6, 16, 10, 11, 4, 8, 18]
22 1.7777777777777777 [0, 19, 12, 18, 16, 4, 6, 9, 20, 1, 15, 5, 13, 14, 2, 17, 8, 21, 7, 3, 10, 11]
23 1.8024691358024691 [2, 19, 14, 0, 21, 7, 15, 17, 16, 18, 3, 1, 9, 8, 20, 5, 12, 6, 13, 10, 4, 22, 11]
24 1.7710843373493976 [2, 4, 13, 22, 7, 17, 23, 10, 15, 1, 16, 0, 19, 21, 14, 11, 3, 5, 6, 12, 18, 20, 9, 8]
25 1.7912087912087913 [18, 20, 11, 4, 14, 7, 2, 21, 3, 15, 6, 23, 9, 17, 19, 10, 16, 13, 22, 24, 8, 0, 5, 12, 1]
26 1.7659574468085106 [18, 21, 14, 25, 12, 2, 19, 17, 0, 8, 20, 5, 24, 23, 1, 4, 13, 22, 15, 7, 16, 11, 3, 9, 6, 10]
27 1.78125 [9, 16, 23, 26, 3, 0, 7, 1, 25, 22, 2, 13, 24, 14, 11, 4, 19, 18, 12, 17, 5, 6, 8, 21, 20, 10, 15]
28 1.8113207547169812 [6, 26, 22, 19, 8, 20, 27, 12, 5, 2, 14, 7, 24, 23, 0, 21, 16, 4, 13, 3, 10, 18, 11, 1, 25, 17, 9, 15]
29 1.798165137614679 [6, 27, 4, 15, 11, 5, 24, 26, 28, 19, 17, 8, 16, 10, 13, 2, 3, 25, 22, 12, 9, 21, 20, 0, 23, 18, 14, 7, 1]
30 1.7777777777777777 [28, 7, 6, 19, 14, 29, 16, 0, 10, 8, 24, 2, 13, 18, 22, 26, 25, 1, 4, 12, 3, 21, 23, 15, 17, 27, 11, 9, 5, 20]
31 1.816 [6, 24, 22, 16, 18, 8, 1, 7, 28, 14, 10, 19, 26, 20, 12, 27, 29, 23, 0, 3, 11, 9, 15, 25, 17, 4, 30, 13, 2, 5, 21]
32 1.7540983606557377 [21, 11, 6, 15, 26, 17, 23, 22, 30, 20, 25, 3, 28, 31, 9, 10, 29, 8, 7, 13, 19, 1, 16, 14, 2, 0, 27, 24, 4, 18, 5, 12]
33 1.7744360902255638 [15, 13, 24, 29, 18, 32, 21, 9, 3, 7, 23, 30, 1, 2, 28, 20, 0, 26, 5, 10, 31, 17, 8, 19, 11, 4, 14, 16, 6, 25, 12, 22, 27]
34 1.7518796992481203 [14, 3, 31, 2, 12, 13, 1, 15, 7, 25, 20, 33, 5, 6, 4, 10, 16, 18, 28, 21, 9, 29, 11, 8, 23, 24, 17, 0, 22, 32, 30, 19, 26, 27]
35 1.7714285714285714 [20, 30, 18, 33, 12, 34, 0, 25, 3, 1, 27, 9, 13, 8, 23, 11, 2, 22, 26, 10, 29, 4, 24, 28, 7, 21, 16, 19, 17, 14, 6, 32, 5, 15, 31]
36 1.793103448275862 [24, 8, 6, 28, 30, 0, 23, 15, 11, 19, 7, 33, 35, 29, 17, 16, 34, 21, 18, 20, 26, 25, 2, 31, 12, 32, 3, 4, 27, 13, 22, 1, 5, 10, 9, 14]
37 1.7466666666666666 [31, 19, 25, 32, 34, 30, 1, 29, 22, 6, 7, 2, 8, 17, 0, 35, 26, 11, 36, 33, 5, 15, 18, 3, 20, 10, 16, 9, 24, 23, 14, 13, 27, 12, 4, 28, 21]
38 1.7861635220125787 [15, 5, 17, 13, 16, 37, 1, 33, 4, 8, 25, 7, 2, 27, 10, 20, 19, 3, 14, 23, 0, 18, 32, 24, 9, 22, 36, 28, 30, 34, 12, 31, 21, 6, 29, 11, 35, 26]
39 1.7806451612903227 [36, 7, 28, 0, 33, 27, 37, 3, 31, 38, 6, 26, 4, 23, 8, 25, 17, 5, 12, 10, 2, 34, 35, 32, 15, 19, 1, 20, 24, 16, 14, 22, 9, 11, 30, 29, 21, 13, 18]
40 1.7588235294117647 [1, 36, 32, 13, 35, 29, 34, 22, 24, 19, 31, 4, 7, 3, 17, 33, 16, 6, 2, 39, 20, 23, 30, 9, 11, 21, 26, 0, 14, 15, 27, 38, 18, 12, 8, 25, 37, 28, 10, 5]
41 1.7861271676300579 [1, 22, 6, 3, 18, 38, 32, 14, 17, 8, 0, 27, 24, 13, 30, 11, 19, 31, 7, 23, 28, 25, 2, 35, 21, 5, 29, 4, 39, 12, 36, 9, 10, 33, 37, 15, 16, 26, 40, 34, 20]
42 1.7640449438202248 [17, 3, 20, 6, 31, 5, 1, 41, 32, 25, 34, 39, 8, 9, 35, 22, 33, 0, 37, 24, 11, 14, 15, 28, 21, 40, 4, 12, 16, 38, 29, 30, 13, 18, 10, 36, 7, 19, 26, 27, 23, 2]
43 1.7783783783783784 [22, 3, 38, 0, 31, 39, 30, 11, 12, 26, 17, 6, 37, 5, 9, 19, 33, 27, 2, 34, 29, 42, 21, 32, 14, 16, 35, 20, 10, 13, 18, 41, 40, 15, 36, 7, 8, 1, 28, 24, 23, 25, 4]
44 1.7421052631578948 [27, 41, 22, 3, 21, 1, 24, 35, 18, 16, 6, 34, 17, 4, 20, 0, 37, 8, 12, 43, 9, 10, 39, 32, 42, 25, 2, 14, 40, 30, 26, 29, 15, 36, 13, 31, 33, 11, 28, 5, 19, 7, 38, 23]
45 1.7563451776649746 [8, 12, 39, 15, 2, 0, 43, 11, 29, 16, 35, 41, 18, 21, 10, 33, 4, 31, 19, 36, 3, 17, 27, 23, 44, 30, 28, 13, 1, 37, 22, 20, 6, 42, 32, 34, 25, 38, 26, 24, 7, 14, 9, 40, 5]
46 1.7427184466019416 [42, 9, 38, 3, 21, 26, 40, 17, 36, 35, 27, 33, 7, 6, 45, 2, 22, 43, 8, 12, 44, 10, 30, 28, 11, 34, 18, 24, 19, 15, 20, 0, 16, 13, 32, 39, 37, 4, 14, 31, 1, 41, 5, 25, 23, 29]
47 1.7635467980295567 [44, 4, 2, 42, 40, 1, 6, 30, 45, 25, 10, 27, 36, 22, 28, 23, 5, 37, 24, 12, 14, 41, 16, 7, 19, 33, 3, 11, 34, 26, 15, 21, 0, 35, 17, 43, 18, 13, 39, 32, 46, 20, 8, 29, 38, 31, 9]
48 1.7677725118483412 [40, 7, 9, 45, 11, 16, 25, 34, 23, 35, 41, 43, 1, 13, 47, 22, 36, 15, 10, 29, 4, 19, 28, 20, 30, 38, 21, 44, 17, 32, 42, 27, 14, 39, 37, 8, 26, 0, 46, 18, 33, 24, 2, 31, 12, 5, 6, 3]
49 1.7649769585253456 [28, 5, 42, 11, 1, 44, 6, 32, 25, 36, 29, 4, 30, 35, 8, 13, 17, 10, 0, 47, 12, 9, 19, 48, 15, 3, 27, 46, 39, 7, 16, 26, 31, 40, 41, 22, 37, 18, 2, 45, 24, 14, 34, 21, 38, 33, 43, 23, 20]
50 1.75 [1, 30, 48, 8, 46, 7, 2, 21, 40, 25, 11, 44, 0, 33, 27, 42, 18, 32, 17, 49, 12, 20, 9, 23, 37, 16, 3, 36, 13, 31, 34, 38, 47, 24, 28, 26, 45, 19, 15, 41, 10, 29, 22, 4, 39, 43, 14, 35, 5, 6]
51 1.7522935779816513 [44, 46, 12, 50, 37, 45, 43, 10, 27, 2, 20, 36, 48, 26, 17, 41, 15, 0, 7, 19, 9, 40, 5, 13, 11, 18, 30, 6, 39, 28, 29, 3, 22, 34, 24, 4, 35, 23, 25, 33, 32, 31, 21, 14, 16, 38, 49, 8, 47, 1, 42]
52 1.7835497835497836 [24, 12, 38, 37, 26, 15, 42, 39, 47, 50, 4, 19, 18, 41, 22, 7, 3, 0, 49, 25, 8, 27, 29, 13, 51, 6, 45, 43, 21, 44, 40, 23, 28, 2, 46, 20, 17, 34, 31, 35, 11, 16, 1, 36, 48, 14, 5, 9, 33, 32, 30, 10]
53 1.7510373443983402 [5, 21, 39, 14, 51, 7, 24, 22, 38, 4, 48, 28, 42, 15, 41, 19, 10, 50, 26, 45, 13, 40, 8, 43, 17, 32, 44, 18, 2, 35, 3, 0, 9, 34, 23, 49, 16, 46, 52, 6, 37, 11, 29, 33, 1, 30, 36, 47, 31, 27, 25, 12, 20]
54 1.7530864197530864 [36, 12, 5, 33, 21, 28, 37, 50, 25, 6, 16, 8, 31, 43, 30, 18, 11, 24, 52, 27, 4, 51, 9, 10, 7, 26, 40, 14, 47, 1, 15, 23, 35, 45, 32, 41, 0, 49, 53, 13, 29, 42, 19, 48, 20, 3, 44, 17, 46, 2, 39, 38, 34, 22]
55 1.756 [30, 46, 53, 5, 26, 9, 29, 19, 8, 47, 15, 31, 50, 2, 52, 11, 32, 0, 13, 1, 18, 4, 25, 36, 14, 38, 39, 27, 23, 35, 7, 42, 6, 34, 51, 48, 41, 33, 54, 21, 43, 20, 10, 17, 16, 22, 49, 24, 40, 12, 28, 3, 44, 45, 37]
56 1.782442748091603 [48, 10, 24, 43, 36, 13, 1, 17, 54, 5, 32, 2, 41, 33, 45, 16, 51, 19, 31, 11, 35, 30, 9, 29, 40, 28, 25, 4, 6, 49, 38, 27, 0, 34, 8, 21, 55, 14, 26, 47, 15, 52, 12, 44, 42, 3, 23, 22, 7, 53, 50, 18, 46, 20, 39, 37]
57 1.7386363636363635 [55, 52, 49, 46, 22, 54, 7, 17, 53, 19, 20, 48, 4, 42, 15, 33, 12, 11, 43, 25, 3, 36, 14, 31, 1, 21, 29, 30, 18, 23, 6, 10, 39, 56, 8, 9, 35, 5, 27, 32, 44, 41, 47, 24, 0, 28, 13, 38, 50, 37, 51, 34, 16, 26, 45, 40, 2]
58 1.7739463601532568 [13, 32, 50, 17, 10, 56, 11, 6, 12, 21, 46, 57, 36, 25, 30, 15, 27, 38, 52, 3, 47, 9, 7, 19, 28, 48, 54, 26, 20, 16, 41, 40, 42, 31, 43, 49, 0, 33, 4, 22, 44, 18, 24, 55, 1, 29, 23, 5, 14, 35, 8, 2, 37, 39, 45, 34, 51, 53]
59 1.7366412213740459 [45, 1, 47, 28, 48, 36, 7, 17, 5, 0, 53, 11, 46, 2, 40, 20, 35, 25, 10, 15, 9, 18, 12, 8, 21, 39, 32, 3, 55, 50, 13, 37, 54, 38, 43, 30, 29, 4, 34, 41, 6, 42, 58, 33, 56, 27, 16, 19, 26, 14, 31, 24, 51, 44, 22, 57, 23, 52, 49]
60 1.7326007326007327 [28, 43, 8, 6, 2, 45, 15, 36, 38, 5, 14, 49, 22, 4, 24, 50, 26, 58, 25, 19, 0, 21, 13, 47, 54, 37, 44, 3, 52, 30, 34, 16, 12, 1, 31, 56, 39, 57, 42, 27, 11, 53, 18, 20, 46, 41, 40, 48, 51, 32, 55, 7, 33, 59, 35, 10, 9, 17, 29, 23]
13 2.0 [9, 2, 11, 0, 10, 12, 4, 3, 8, 1, 7, 5, 6]
14 2.026315789473684 [0, 1, 4, 8, 2, 12, 3, 6, 13, 7, 5, 10, 11, 9]
15 2.022727272727273 [2, 6, 12, 0, 14, 4, 5, 3, 10, 1, 8, 7, 9, 11, 13]
16 2.0408163265306123 [1, 7, 13, 3, 9, 0, 15, 5, 6, 4, 2, 11, 12, 14, 10, 8]
17 2.037037037037037 [7, 16, 0, 12, 3, 9, 14, 13, 1, 15, 2, 5, 6, 4, 11, 10, 8]
18 2.0 [8, 17, 0, 3, 10, 15, 13, 9, 1, 11, 16, 12, 14, 2, 5, 4, 7, 6]
19 2.086206896551724 [15, 17, 3, 5, 1, 4, 18, 2, 13, 0, 10, 14, 11, 8, 9, 6, 12, 16, 7]
20 2.0615384615384613 [16, 3, 19, 1, 17, 14, 6, 2, 15, 0, 9, 7, 18, 4, 11, 5, 8, 13, 12, 10]
21 2.015151515151515 [17, 19, 1, 18, 3, 2, 12, 0, 6, 20, 5, 14, 13, 9, 15, 4, 16, 7, 8, 11, 10]
22 2.0273972602739727 [20, 16, 3, 21, 6, 18, 17, 0, 19, 1, 12, 9, 10, 14, 13, 2, 4, 7, 15, 8, 5, 11]
23 2.051948051948052 [3, 1, 18, 0, 21, 6, 22, 9, 12, 8, 4, 20, 5, 7, 16, 14, 19, 2, 17, 10, 11, 15, 13]
24 2.0365853658536586 [7, 19, 21, 2, 17, 9, 18, 0, 20, 4, 22, 11, 13, 10, 15, 8, 23, 6, 5, 3, 16, 1, 14, 12]
25 2.023529411764706 [4, 20, 23, 7, 0, 2, 6, 24, 5, 13, 11, 22, 17, 18, 3, 16, 12, 1, 9, 10, 21, 19, 15, 8, 14]
26 2.090909090909091 [7, 0, 21, 2, 24, 4, 11, 14, 9, 1, 10, 25, 8, 3, 12, 18, 23, 19, 16, 5, 15, 13, 6, 22, 20, 17]
27 2.021276595744681 [16, 25, 2, 0, 5, 18, 4, 26, 23, 9, 11, 7, 1, 24, 21, 17, 10, 20, 22, 3, 6, 8, 14, 12, 15, 13, 19]
28 2.0520833333333335 [24, 6, 25, 22, 2, 17, 23, 19, 8, 0, 7, 18, 4, 5, 12, 3, 20, 1, 26, 10, 13, 9, 21, 11, 15, 27, 16, 14]
29 2.064814814814815 [2, 19, 25, 0, 27, 8, 4, 15, 17, 6, 26, 10, 28, 12, 23, 9, 18, 3, 16, 7, 1, 21, 20, 24, 5, 13, 11, 22, 14]
30 2.0545454545454547 [0, 6, 24, 28, 2, 4, 22, 20, 23, 8, 1, 29, 10, 5, 3, 14, 12, 21, 13, 18, 19, 16, 26, 7, 15, 25, 27, 9, 11, 17]
31 2.0707964601769913 [24, 0, 29, 2, 28, 8, 18, 4, 20, 3, 14, 26, 10, 25, 1, 16, 6, 7, 30, 27, 19, 17, 9, 5, 12, 13, 22, 11, 15, 21, 23]
32 2.0166666666666666 [29, 25, 31, 15, 7, 9, 0, 3, 27, 5, 8, 23, 19, 24, 17, 21, 13, 11, 16, 30, 1, 22, 20, 2, 4, 26, 10, 28, 18, 12, 14, 6]
33 2.0232558139534884 [0, 26, 2, 32, 11, 17, 5, 15, 24, 1, 25, 20, 13, 7, 30, 9, 6, 22, 18, 12, 3, 14, 19, 16, 31, 28, 4, 27, 29, 10, 8, 23, 21]
34 2.0476190476190474 [1, 7, 18, 3, 23, 0, 16, 31, 21, 22, 9, 32, 19, 20, 17, 8, 27, 5, 25, 6, 4, 29, 2, 12, 14, 13, 10, 33, 28, 30, 24, 15, 26, 11]
35 2.0634920634920637 [32, 12, 33, 13, 0, 14, 1, 5, 34, 3, 10, 30, 11, 4, 27, 29, 23, 9, 7, 18, 25, 21, 16, 15, 17, 31, 2, 6, 28, 8, 26, 22, 19, 24, 20]
36 2.007518796992481 [28, 17, 31, 33, 30, 10, 35, 13, 0, 26, 2, 3, 19, 27, 12, 15, 5, 11, 1, 16, 22, 29, 24, 32, 4, 7, 6, 8, 14, 21, 18, 25, 9, 20, 34, 23]
37 2.0296296296296297 [21, 1, 35, 32, 3, 19, 5, 20, 36, 8, 34, 2, 24, 27, 22, 30, 0, 25, 23, 26, 29, 10, 15, 9, 6, 13, 7, 31, 4, 14, 11, 12, 17, 18, 16, 28, 33]
38 2.0354609929078014 [1, 0, 3, 20, 26, 6, 35, 5, 22, 10, 33, 15, 2, 8, 9, 18, 23, 7, 25, 37, 13, 34, 4, 31, 28, 32, 16, 14, 11, 12, 17, 21, 36, 24, 27, 19, 30, 29]
39 2.0463576158940397 [10, 0, 20, 3, 35, 12, 33, 25, 13, 11, 36, 1, 28, 23, 5, 37, 22, 30, 26, 29, 21, 27, 24, 31, 4, 32, 38, 8, 9, 2, 15, 34, 18, 14, 16, 6, 17, 19, 7]
40 2.0375 [29, 31, 1, 34, 3, 2, 11, 36, 21, 26, 13, 0, 39, 28, 16, 12, 6, 18, 19, 38, 4, 27, 8, 9, 17, 24, 14, 32, 7, 23, 22, 25, 30, 33, 37, 10, 35, 15, 5, 20]
41 2.0584415584415585 [0, 3, 6, 37, 4, 39, 5, 30, 11, 35, 1, 9, 34, 13, 32, 14, 36, 21, 12, 28, 8, 16, 7, 15, 27, 10, 19, 24, 23, 29, 40, 33, 31, 2, 38, 22, 20, 25, 17, 26, 18]
42 2.0580645161290323 [41, 36, 20, 39, 17, 18, 37, 0, 26, 19, 4, 25, 14, 27, 15, 12, 38, 1, 16, 2, 29, 13, 6, 5, 8, 7, 28, 40, 33, 31, 35, 34, 3, 30, 10, 11, 9, 32, 22, 21, 23, 24]
43 1.9884393063583814 [4, 17, 34, 38, 20, 18, 2, 28, 25, 11, 6, 0, 31, 36, 24, 19, 39, 3, 13, 1, 42, 30, 32, 33, 29, 27, 12, 26, 22, 5, 41, 21, 23, 40, 14, 35, 9, 37, 15, 16, 7, 10, 8]
44 1.977900552486188 [15, 26, 0, 37, 6, 9, 21, 27, 20, 1, 28, 3, 23, 22, 25, 12, 40, 7, 42, 2, 30, 34, 29, 24, 4, 39, 14, 38, 8, 36, 32, 35, 18, 43, 19, 41, 17, 10, 13, 5, 16, 11, 33, 31]
45 2.011111111111111 [0, 26, 35, 16, 43, 18, 2, 3, 29, 1, 23, 32, 27, 12, 14, 28, 6, 33, 15, 25, 31, 17, 21, 24, 8, 30, 4, 37, 5, 44, 38, 10, 9, 11, 36, 34, 13, 41, 7, 40, 42, 19, 22, 39, 20]
46 1.9837837837837837 [37, 4, 42, 44, 39, 15, 30, 7, 41, 28, 21, 45, 2, 13, 14, 6, 0, 29, 3, 33, 12, 31, 34, 43, 9, 5, 32, 22, 36, 18, 40, 35, 19, 16, 1, 17, 8, 11, 20, 38, 10, 24, 26, 25, 23, 27]
47 1.989071038251366 [42, 13, 45, 34, 1, 39, 38, 24, 27, 36, 35, 21, 37, 3, 44, 26, 41, 25, 18, 40, 22, 10, 23, 19, 12, 0, 16, 4, 2, 6, 11, 7, 15, 17, 20, 5, 46, 43, 28, 30, 8, 32, 9, 33, 14, 29, 31]
48 1.9747474747474747 [23, 37, 28, 1, 46, 11, 40, 31, 13, 17, 34, 47, 27, 45, 19, 43, 38, 16, 44, 4, 39, 22, 30, 42, 21, 0, 18, 41, 2, 35, 7, 15, 32, 9, 12, 5, 14, 36, 10, 33, 8, 29, 6, 3, 25, 24, 20, 26]
49 1.9900497512437811 [42, 19, 44, 2, 17, 25, 38, 40, 23, 0, 27, 29, 41, 33, 21, 18, 4, 20, 22, 28, 47, 10, 32, 43, 48, 13, 15, 11, 26, 5, 12, 35, 36, 3, 39, 37, 1, 46, 8, 9, 7, 16, 24, 14, 31, 6, 30, 45, 34]
50 2.0 [26, 13, 30, 2, 48, 33, 7, 1, 31, 4, 42, 23, 45, 28, 17, 29, 24, 0, 27, 15, 18, 32, 20, 16, 21, 14, 35, 11, 43, 12, 47, 25, 9, 46, 8, 49, 3, 36, 44, 22, 5, 10, 40, 34, 19, 6, 41, 39, 37, 38]
51 1.9953051643192488 [33, 47, 11, 20, 37, 26, 24, 30, 31, 49, 48, 2, 4, 15, 43, 18, 14, 50, 13, 17, 45, 32, 44, 28, 21, 39, 0, 3, 25, 1, 34, 8, 46, 35, 5, 36, 9, 6, 10, 7, 27, 16, 29, 23, 41, 40, 42, 12, 38, 19, 22]
52 1.9723502304147464 [0, 31, 47, 7, 14, 41, 38, 50, 25, 1, 45, 11, 3, 44, 12, 29, 46, 42, 2, 43, 30, 49, 34, 39, 18, 22, 40, 32, 16, 24, 21, 19, 15, 33, 20, 23, 48, 4, 51, 9, 10, 36, 35, 37, 27, 8, 5, 28, 13, 6, 17, 26]
53 1.9821428571428572 [48, 50, 28, 14, 52, 18, 45, 2, 4, 41, 38, 29, 39, 1, 32, 47, 21, 40, 16, 7, 11, 12, 43, 17, 42, 25, 9, 51, 15, 23, 19, 13, 5, 36, 34, 30, 31, 37, 27, 22, 6, 24, 44, 3, 10, 8, 20, 0, 46, 26, 49, 33, 35]
54 1.9780701754385965 [53, 4, 2, 42, 7, 50, 9, 15, 46, 3, 52, 16, 19, 28, 18, 37, 8, 49, 11, 13, 10, 44, 31, 45, 21, 47, 20, 51, 29, 17, 33, 32, 14, 1, 35, 39, 0, 48, 25, 34, 12, 36, 43, 26, 27, 41, 24, 40, 23, 30, 22, 38, 5, 6]
55 1.9874476987447698 [43, 7, 46, 30, 2, 32, 53, 49, 11, 33, 14, 4, 37, 9, 5, 25, 8, 21, 28, 12, 31, 44, 0, 41, 3, 35, 47, 19, 16, 23, 51, 24, 36, 39, 22, 34, 20, 54, 52, 18, 50, 13, 48, 17, 45, 6, 40, 27, 38, 42, 1, 10, 29, 26, 15]
56 1.9913793103448276 [38, 22, 2, 43, 15, 52, 17, 1, 6, 8, 50, 33, 54, 25, 34, 16, 4, 10, 29, 53, 13, 0, 12, 40, 14, 7, 48, 11, 55, 3, 5, 20, 21, 51, 19, 24, 45, 31, 44, 32, 30, 28, 9, 27, 26, 18, 42, 23, 41, 39, 36, 47, 37, 49, 46, 35]
57 1.9588477366255144 [1, 42, 51, 4, 55, 0, 19, 22, 46, 44, 6, 8, 29, 13, 27, 5, 35, 33, 20, 53, 48, 50, 47, 43, 52, 24, 28, 23, 9, 31, 21, 17, 56, 34, 18, 37, 15, 2, 10, 36, 30, 38, 14, 3, 45, 49, 7, 12, 16, 39, 54, 41, 32, 11, 26, 40, 25]
58 2.056768558951965 [23, 12, 47, 42, 49, 25, 48, 2, 56, 19, 44, 43, 50, 57, 24, 21, 40, 36, 22, 41, 20, 38, 17, 34, 37, 13, 39, 0, 55, 54, 52, 30, 27, 1, 32, 35, 26, 6, 4, 28, 31, 8, 7, 10, 5, 33, 46, 3, 53, 45, 51, 15, 18, 29, 16, 14, 9, 11]
59 1.9835390946502058 [27, 55, 4, 6, 8, 23, 15, 5, 2, 7, 57, 30, 56, 36, 3, 51, 38, 34, 1, 33, 25, 35, 26, 17, 12, 28, 58, 14, 42, 29, 32, 10, 37, 24, 18, 53, 19, 16, 31, 45, 21, 20, 41, 22, 49, 0, 9, 40, 11, 43, 54, 50, 13, 39, 47, 46, 52, 44, 48]
60 1.9695817490494296 [22, 10, 33, 6, 28, 16, 37, 44, 20, 56, 8, 43, 52, 41, 35, 34, 3, 36, 57, 4, 24, 23, 26, 42, 18, 58, 1, 14, 25, 12, 46, 15, 39, 17, 45, 13, 27, 48, 11, 50, 7, 21, 54, 2, 47, 51, 59, 49, 31, 38, 0, 40, 30, 32, 19, 5, 9, 29, 55, 53]
13 2.0 [2, 9, 0, 11, 4, 7, 3, 12, 1, 5, 10, 8, 6]
14 2.0256410256410255 [2, 0, 4, 8, 3, 12, 1, 6, 13, 7, 10, 11, 9, 5]
15 2.046511627906977 [13, 6, 12, 2, 14, 0, 10, 11, 8, 7, 9, 4, 1, 3, 5]
16 2.0625 [7, 1, 14, 3, 13, 0, 15, 9, 2, 8, 11, 10, 12, 5, 4, 6]
17 2.018181818181818 [9, 1, 16, 12, 7, 8, 10, 14, 13, 0, 3, 2, 15, 5, 6, 4, 11]
18 2.0526315789473686 [0, 11, 3, 15, 5, 13, 1, 12, 17, 4, 14, 2, 16, 8, 10, 6, 9, 7]
19 2.0508474576271185 [15, 5, 18, 0, 17, 13, 8, 14, 1, 16, 7, 10, 6, 2, 9, 3, 4, 12, 11]
20 2.0491803278688523 [1, 3, 6, 0, 5, 16, 4, 18, 14, 15, 2, 17, 9, 7, 11, 10, 19, 13, 8, 12]
21 2.0441176470588234 [1, 6, 17, 0, 19, 3, 15, 16, 9, 5, 8, 18, 7, 12, 4, 11, 20, 2, 14, 13, 10]
22 2.0422535211267605 [3, 1, 18, 0, 20, 6, 2, 9, 8, 16, 17, 4, 19, 12, 10, 7, 21, 5, 11, 14, 15, 13]
23 2.039473684210526 [6, 18, 3, 1, 21, 16, 17, 8, 7, 10, 2, 0, 9, 19, 12, 5, 22, 4, 14, 20, 15, 13, 11]
24 2.037974683544304 [22, 4, 23, 13, 19, 2, 16, 21, 20, 15, 7, 0, 6, 10, 5, 9, 12, 3, 8, 1, 18, 17, 14, 11]
25 2.0348837209302326 [2, 4, 20, 23, 13, 0, 8, 17, 10, 12, 22, 3, 7, 11, 24, 1, 21, 9, 15, 16, 19, 18, 14, 5, 6]
26 2.0898876404494384 [7, 0, 21, 2, 24, 4, 19, 18, 1, 11, 20, 9, 10, 23, 8, 3, 12, 25, 14, 13, 16, 5, 15, 6, 22, 17]
27 2.0543478260869565 [21, 23, 2, 22, 25, 4, 11, 24, 7, 26, 14, 1, 13, 18, 20, 12, 3, 19, 0, 16, 9, 17, 10, 8, 15, 5, 6]
28 2.086021505376344 [24, 20, 26, 25, 22, 8, 2, 19, 0, 4, 10, 21, 9, 1, 23, 3, 6, 15, 12, 11, 13, 27, 5, 17, 18, 16, 14, 7]
29 2.0865384615384617 [4, 25, 0, 21, 27, 2, 3, 28, 15, 19, 12, 1, 8, 23, 10, 13, 14, 26, 6, 20, 17, 18, 24, 16, 7, 22, 5, 11, 9]
30 2.0636363636363635 [2, 24, 28, 0, 4, 16, 20, 10, 14, 29, 22, 6, 26, 3, 25, 18, 17, 1, 19, 8, 21, 12, 11, 27, 9, 23, 7, 5, 13, 15]
31 2.0689655172413794 [28, 8, 30, 16, 2, 24, 6, 10, 0, 9, 12, 4, 26, 22, 18, 29, 20, 17, 3, 23, 5, 19, 11, 21, 7, 27, 1, 25, 14, 15, 13]
32 2.0813008130081303 [0, 23, 29, 3, 15, 9, 19, 17, 31, 1, 21, 5, 11, 16, 20, 22, 27, 4, 28, 7, 8, 6, 13, 25, 24, 30, 14, 2, 12, 18, 10, 26]
33 2.04 [28, 13, 30, 17, 0, 24, 9, 11, 32, 1, 20, 7, 22, 8, 19, 26, 27, 23, 15, 14, 3, 2, 5, 16, 18, 6, 29, 4, 21, 31, 25, 10, 12]
34 2.0569105691056913 [31, 18, 33, 0, 27, 3, 20, 25, 19, 10, 21, 16, 1, 12, 17, 29, 14, 23, 22, 24, 26, 30, 5, 4, 2, 8, 9, 28, 7, 6, 32, 13, 15, 11]
35 2.065040650406504 [0, 3, 32, 1, 30, 5, 16, 34, 27, 2, 18, 9, 7, 8, 29, 28, 17, 12, 6, 14, 31, 15, 4, 23, 10, 13, 11, 21, 33, 19, 22, 25, 26, 20, 24]
36 2.0217391304347827 [33, 10, 1, 35, 31, 17, 0, 32, 3, 26, 19, 13, 8, 22, 28, 27, 2, 30, 34, 18, 12, 20, 4, 9, 15, 11, 29, 5, 16, 24, 14, 7, 25, 6, 23, 21]
37 2.0642857142857145 [0, 34, 3, 26, 36, 29, 2, 31, 5, 10, 30, 4, 32, 8, 35, 19, 13, 22, 17, 11, 24, 1, 18, 20, 12, 7, 9, 6, 23, 21, 33, 15, 14, 16, 28, 27, 25]
38 2.0616438356164384 [30, 0, 32, 3, 33, 5, 35, 10, 1, 7, 28, 29, 2, 37, 20, 31, 23, 13, 4, 22, 25, 6, 27, 15, 18, 11, 14, 16, 21, 36, 26, 8, 24, 9, 34, 19, 12, 17]
39 2.054421768707483 [20, 1, 35, 5, 0, 10, 15, 38, 8, 33, 23, 37, 13, 36, 22, 21, 34, 18, 19, 17, 31, 12, 30, 28, 3, 27, 32, 25, 24, 4, 26, 29, 2, 6, 9, 16, 14, 11, 7]
40 2.0794701986754967 [4, 31, 1, 34, 6, 5, 32, 3, 0, 24, 16, 26, 36, 23, 11, 33, 25, 35, 14, 37, 28, 38, 27, 39, 2, 19, 21, 12, 22, 17, 18, 20, 9, 30, 15, 10, 7, 13, 29, 8]
41 2.03680981595092 [7, 11, 3, 9, 40, 1, 33, 21, 6, 37, 2, 16, 17, 27, 14, 25, 12, 24, 30, 15, 23, 22, 4, 29, 35, 13, 28, 32, 39, 0, 5, 38, 8, 10, 36, 34, 19, 20, 18, 26, 31]
42 2.049689440993789 [1, 3, 6, 22, 25, 38, 9, 0, 40, 8, 29, 28, 12, 26, 7, 36, 20, 23, 4, 37, 11, 24, 31, 27, 39, 17, 18, 21, 30, 41, 33, 32, 34, 35, 10, 15, 5, 19, 2, 14, 13, 16]
43 2.0421686746987953 [4, 6, 1, 34, 5, 22, 39, 28, 41, 11, 30, 13, 36, 42, 35, 3, 14, 17, 20, 37, 16, 38, 9, 40, 0, 26, 31, 27, 24, 23, 8, 10, 25, 29, 33, 15, 7, 12, 32, 2, 21, 19, 18]
44 2.0166666666666666 [40, 42, 24, 0, 37, 7, 13, 32, 38, 18, 43, 29, 30, 21, 1, 27, 3, 15, 39, 34, 9, 33, 41, 2, 20, 31, 19, 26, 23, 36, 22, 8, 14, 35, 4, 25, 11, 12, 16, 28, 17, 10, 5, 6]
45 2.005714285714286 [1, 41, 3, 44, 6, 23, 0, 37, 26, 33, 25, 15, 21, 22, 16, 43, 39, 27, 30, 35, 38, 12, 5, 4, 2, 17, 34, 40, 14, 42, 36, 13, 29, 32, 24, 10, 11, 28, 8, 31, 9, 7, 19, 20, 18]
46 2.042105263157895 [10, 12, 1, 42, 3, 31, 39, 7, 2, 0, 25, 15, 36, 18, 40, 21, 30, 16, 45, 14, 38, 27, 44, 26, 5, 29, 41, 9, 28, 11, 19, 34, 20, 17, 13, 35, 43, 4, 6, 8, 23, 22, 24, 37, 33, 32]
47 2.051546391752577 [33, 45, 6, 34, 0, 36, 46, 9, 10, 30, 8, 21, 31, 24, 2, 12, 27, 28, 11, 43, 1, 42, 44, 18, 4, 20, 22, 7, 40, 39, 19, 35, 25, 5, 26, 3, 41, 16, 17, 14, 13, 32, 38, 29, 15, 23, 37]
48 2.046153846153846 [0, 19, 43, 4, 31, 2, 13, 16, 47, 15, 11, 5, 12, 46, 8, 3, 37, 40, 45, 34, 35, 32, 25, 33, 22, 14, 41, 21, 7, 28, 30, 17, 44, 26, 1, 18, 10, 23, 27, 29, 42, 6, 39, 38, 36, 9, 24, 20]
49 2.004878048780488 [47, 25, 4, 29, 27, 2, 48, 19, 22, 15, 38, 30, 16, 42, 44, 40, 32, 3, 10, 8, 13, 43, 7, 34, 21, 36, 0, 26, 35, 33, 28, 31, 24, 14, 46, 12, 45, 11, 39, 9, 41, 1, 37, 18, 17, 20, 23, 5, 6]
50 2.0238095238095237 [5, 45, 2, 13, 26, 0, 49, 7, 10, 11, 42, 43, 33, 23, 39, 3, 48, 24, 12, 28, 9, 29, 6, 1, 27, 17, 36, 35, 47, 30, 46, 20, 41, 37, 15, 40, 38, 16, 19, 44, 22, 18, 14, 25, 8, 21, 32, 4, 31, 34]
51 2.0428571428571427 [20, 30, 22, 46, 33, 5, 39, 31, 2, 36, 10, 15, 50, 43, 37, 8, 44, 21, 49, 24, 26, 23, 47, 25, 28, 48, 27, 41, 40, 38, 9, 6, 7, 42, 13, 29, 18, 11, 1, 17, 19, 14, 45, 4, 35, 34, 32, 0, 16, 3, 12]
52 1.9823788546255507 [41, 1, 47, 4, 50, 0, 44, 27, 21, 31, 7, 45, 9, 42, 24, 8, 38, 14, 6, 12, 2, 18, 51, 37, 11, 43, 29, 10, 46, 23, 3, 25, 13, 49, 34, 16, 33, 26, 17, 30, 19, 48, 20, 5, 36, 15, 35, 39, 22, 40, 28, 32]
53 1.9953917050691243 [0, 11, 2, 43, 46, 4, 16, 48, 7, 44, 1, 27, 13, 3, 14, 36, 45, 9, 31, 51, 32, 47, 23, 24, 10, 21, 38, 37, 18, 41, 22, 17, 26, 50, 29, 25, 28, 30, 34, 52, 33, 49, 35, 39, 8, 40, 42, 19, 5, 6, 12, 20, 15]
54 1.9912663755458515 [21, 14, 3, 43, 11, 16, 39, 49, 12, 0, 44, 7, 15, 47, 25, 9, 30, 52, 41, 48, 40, 42, 53, 8, 10, 35, 2, 32, 46, 31, 23, 37, 22, 5, 38, 18, 24, 34, 4, 33, 1, 36, 6, 51, 20, 50, 28, 19, 45, 13, 29, 17, 27, 26]
55 1.9872881355932204 [5, 2, 49, 0, 51, 9, 35, 53, 46, 12, 48, 28, 21, 11, 4, 23, 33, 40, 30, 47, 14, 13, 18, 19, 7, 27, 34, 42, 41, 44, 16, 37, 38, 50, 3, 8, 10, 54, 6, 39, 25, 36, 17, 31, 1, 32, 29, 22, 52, 26, 15, 45, 43, 24, 20]
56 1.9877049180327868 [48, 29, 40, 22, 8, 27, 54, 24, 13, 17, 2, 43, 20, 31, 53, 30, 21, 45, 6, 36, 33, 38, 0, 11, 55, 10, 32, 12, 34, 50, 35, 52, 49, 39, 23, 4, 28, 19, 15, 18, 3, 25, 14, 26, 7, 46, 51, 42, 41, 9, 44, 16, 47, 1, 37, 5]
57 2.016949152542373 [31, 51, 8, 38, 2, 53, 4, 22, 55, 29, 15, 20, 54, 56, 12, 48, 35, 46, 0, 37, 3, 33, 32, 34, 41, 24, 23, 52, 1, 5, 36, 26, 25, 30, 10, 50, 17, 16, 11, 49, 18, 19, 14, 9, 6, 13, 21, 47, 7, 44, 43, 40, 39, 28, 45, 27, 42]
58 1.9959514170040487 [32, 28, 56, 54, 30, 6, 50, 52, 57, 17, 13, 27, 42, 2, 36, 53, 8, 15, 55, 25, 43, 19, 0, 31, 16, 45, 14, 29, 12, 4, 7, 44, 5, 48, 46, 21, 1, 20, 23, 24, 47, 22, 49, 10, 51, 3, 37, 34, 33, 9, 38, 40, 11, 41, 39, 35, 26, 18]
59 2.0203252032520327 [13, 27, 55, 2, 36, 45, 42, 28, 57, 51, 40, 23, 21, 17, 8, 0, 30, 29, 19, 32, 6, 47, 15, 10, 31, 12, 38, 11, 50, 9, 58, 4, 49, 46, 53, 43, 44, 48, 54, 41, 34, 52, 56, 35, 7, 18, 16, 33, 14, 37, 5, 1, 25, 26, 39, 24, 22, 20, 3]
60 1.9961977186311788 [4, 31, 54, 8, 43, 58, 10, 41, 46, 1, 56, 37, 13, 36, 24, 39, 9, 12, 28, 20, 6, 42, 18, 29, 50, 30, 45, 52, 26, 19, 16, 59, 48, 47, 25, 35, 44, 33, 57, 34, 22, 5, 55, 49, 53, 0, 14, 51, 7, 2, 32, 38, 15, 3, 11, 17, 27, 40, 21, 23]
13 2.0 [7, 2, 9, 11, 8, 0, 10, 4, 3, 1, 12, 5, 6]
14 2.0476190476190474 [2, 4, 8, 0, 12, 3, 6, 13, 7, 10, 5, 11, 1, 9]
15 2.0232558139534884 [10, 6, 14, 0, 12, 13, 11, 8, 2, 7, 1, 9, 4, 5, 3]
16 2.06 [1, 7, 13, 3, 11, 0, 5, 6, 15, 4, 12, 2, 9, 10, 8, 14]
17 2.037037037037037 [10, 16, 0, 3, 5, 9, 14, 4, 1, 15, 2, 12, 11, 13, 7, 6, 8]
18 2.0338983050847457 [0, 11, 15, 3, 16, 5, 13, 1, 12, 4, 14, 8, 9, 7, 17, 2, 6, 10]
19 2.064516129032258 [15, 0, 18, 3, 10, 13, 5, 1, 17, 16, 11, 4, 12, 7, 14, 8, 2, 9, 6]
20 2.0483870967741935 [16, 14, 0, 19, 15, 1, 17, 3, 6, 2, 9, 4, 18, 11, 5, 7, 10, 13, 8, 12]
21 2.0454545454545454 [0, 3, 7, 1, 2, 17, 11, 5, 20, 6, 19, 4, 9, 10, 8, 14, 15, 13, 18, 12, 16]
22 2.0405405405405403 [4, 18, 1, 6, 20, 10, 12, 19, 9, 0, 21, 5, 2, 15, 14, 11, 3, 17, 16, 13, 7, 8]
23 2.0273972602739727 [18, 21, 1, 13, 22, 15, 0, 14, 6, 16, 9, 11, 8, 2, 10, 3, 4, 5, 20, 19, 17, 12, 7]
24 2.05 [2, 22, 0, 19, 4, 23, 13, 21, 3, 16, 15, 7, 18, 10, 12, 1, 17, 20, 14, 11, 9, 5, 8, 6]
25 2.0454545454545454 [2, 20, 0, 4, 23, 13, 17, 3, 18, 7, 22, 9, 24, 11, 5, 21, 10, 19, 1, 15, 14, 12, 16, 6, 8]
26 2.066666666666667 [21, 7, 25, 2, 24, 11, 9, 23, 22, 18, 14, 0, 10, 4, 12, 20, 3, 16, 15, 1, 17, 5, 6, 19, 8, 13]
27 2.0631578947368423 [2, 23, 0, 7, 26, 14, 25, 21, 4, 18, 19, 5, 20, 3, 22, 11, 13, 24, 1, 16, 15, 17, 9, 8, 6, 10, 12]
28 2.01010101010101 [8, 2, 22, 0, 10, 4, 9, 26, 3, 20, 19, 12, 1, 21, 24, 27, 23, 13, 15, 25, 11, 17, 6, 7, 14, 18, 5, 16]
29 2.0416666666666665 [25, 4, 27, 26, 0, 6, 28, 21, 23, 8, 19, 20, 7, 22, 5, 24, 12, 10, 15, 9, 11, 17, 18, 16, 14, 2, 13, 1, 3]
30 2.019230769230769 [2, 24, 0, 28, 8, 4, 14, 29, 26, 20, 1, 25, 12, 22, 3, 6, 7, 5, 13, 10, 23, 18, 21, 11, 27, 19, 9, 16, 15, 17]
31 2.0462962962962963 [2, 30, 1, 24, 8, 13, 4, 10, 28, 11, 9, 0, 26, 16, 15, 29, 14, 22, 20, 23, 27, 25, 3, 5, 12, 6, 7, 18, 17, 19, 21]
32 2.033613445378151 [9, 25, 3, 21, 1, 13, 11, 19, 29, 23, 15, 5, 0, 31, 27, 26, 14, 28, 4, 30, 16, 7, 8, 17, 6, 2, 12, 20, 24, 10, 22, 18]
33 2.057377049180328 [17, 0, 30, 28, 3, 32, 1, 11, 15, 22, 20, 7, 29, 26, 9, 18, 19, 16, 2, 21, 5, 6, 4, 27, 24, 31, 23, 25, 13, 8, 12, 10, 14]
34 2.0307692307692307 [10, 1, 18, 32, 12, 29, 7, 23, 33, 27, 9, 25, 0, 21, 31, 22, 19, 5, 24, 6, 16, 30, 28, 3, 4, 2, 17, 14, 13, 15, 20, 8, 26, 11]
35 2.045112781954887 [27, 34, 30, 7, 25, 1, 28, 3, 18, 0, 9, 8, 14, 21, 16, 12, 19, 23, 2, 32, 5, 6, 4, 20, 33, 17, 15, 26, 31, 24, 29, 11, 22, 13, 10]
36 2.0676691729323307 [19, 0, 33, 8, 5, 10, 35, 13, 9, 7, 28, 3, 26, 34, 30, 22, 20, 11, 24, 15, 14, 17, 16, 18, 32, 23, 27, 25, 21, 31, 29, 1, 2, 4, 6, 12]
37 2.053030303030303 [36, 34, 30, 35, 32, 1, 10, 19, 0, 22, 31, 20, 21, 33, 15, 3, 13, 24, 23, 27, 8, 25, 29, 12, 11, 28, 2, 17, 26, 18, 16, 14, 6, 7, 4, 9, 5]
38 2.006849315068493 [1, 30, 5, 36, 15, 18, 37, 28, 33, 2, 16, 10, 32, 3, 0, 25, 20, 17, 19, 35, 8, 9, 13, 7, 14, 12, 34, 11, 31, 29, 26, 6, 27, 23, 4, 22, 24, 21]
39 2.0264900662251657 [0, 33, 3, 35, 15, 37, 17, 13, 16, 6, 14, 27, 18, 30, 28, 20, 10, 5, 32, 29, 1, 31, 8, 34, 19, 23, 11, 22, 38, 9, 12, 25, 7, 26, 2, 4, 24, 36, 21]
40 2.031847133757962 [36, 21, 16, 0, 38, 24, 23, 6, 4, 9, 19, 17, 11, 1, 5, 8, 39, 34, 29, 26, 37, 3, 18, 31, 7, 35, 10, 20, 13, 22, 14, 33, 32, 30, 25, 15, 27, 2, 28, 12]
41 2.006289308176101 [6, 11, 7, 27, 38, 1, 16, 0, 24, 25, 40, 21, 35, 14, 32, 26, 39, 15, 30, 37, 28, 12, 3, 23, 36, 19, 13, 2, 31, 5, 4, 9, 34, 10, 33, 8, 18, 29, 20, 22, 17]
42 2.036144578313253 [3, 38, 17, 39, 36, 31, 0, 29, 1, 33, 20, 23, 18, 30, 37, 41, 6, 22, 27, 19, 9, 25, 7, 12, 2, 11, 28, 8, 14, 16, 4, 40, 13, 15, 32, 10, 35, 34, 26, 24, 5, 21]
43 1.9886363636363635 [9, 23, 0, 11, 2, 25, 37, 20, 3, 15, 39, 7, 21, 36, 28, 41, 24, 38, 31, 29, 1, 27, 40, 26, 5, 42, 10, 13, 22, 16, 33, 14, 4, 32, 30, 6, 35, 17, 12, 8, 34, 18, 19]
44 2.0059171597633134 [21, 23, 40, 16, 18, 15, 3, 43, 41, 38, 26, 39, 22, 9, 42, 17, 29, 6, 19, 1, 2, 0, 20, 8, 32, 7, 30, 4, 34, 37, 10, 5, 12, 36, 11, 13, 14, 31, 27, 25, 35, 24, 28, 33]
45 1.9786096256684491 [10, 1, 41, 32, 35, 9, 29, 18, 30, 4, 33, 43, 38, 15, 6, 16, 21, 23, 19, 3, 0, 8, 5, 2, 36, 34, 39, 26, 20, 12, 13, 25, 11, 7, 28, 44, 27, 22, 31, 14, 24, 42, 17, 37, 40]
46 2.005291005291005 [0, 2, 3, 19, 36, 12, 31, 42, 27, 45, 24, 39, 9, 10, 15, 13, 34, 6, 40, 1, 33, 44, 16, 29, 28, 30, 38, 25, 4, 18, 22, 35, 21, 7, 26, 5, 37, 43, 32, 23, 20, 8, 41, 11, 14, 17]
47 1.9947643979057592 [36, 0, 43, 39, 12, 45, 14, 10, 2, 33, 41, 30, 13, 18, 31, 11, 35, 3, 42, 16, 24, 27, 1, 40, 38, 26, 37, 22, 21, 15, 20, 23, 6, 29, 19, 46, 17, 44, 8, 4, 32, 34, 28, 5, 25, 9, 7]
48 2.01010101010101 [22, 1, 37, 25, 43, 4, 46, 10, 29, 14, 31, 32, 13, 7, 0, 34, 40, 2, 47, 5, 39, 41, 16, 15, 19, 11, 38, 12, 42, 9, 20, 44, 6, 45, 30, 27, 36, 28, 18, 23, 26, 24, 21, 17, 35, 33, 8, 3]
49 1.984771573604061 [11, 38, 35, 41, 1, 40, 13, 47, 36, 26, 29, 42, 2, 4, 17, 31, 15, 32, 48, 19, 44, 14, 12, 39, 37, 25, 0, 18, 43, 16, 46, 45, 30, 24, 27, 3, 28, 34, 33, 7, 6, 8, 22, 5, 20, 9, 10, 23, 21]
50 2.004830917874396 [13, 26, 8, 4, 15, 48, 10, 33, 5, 0, 28, 30, 49, 27, 45, 36, 2, 29, 42, 9, 1, 14, 35, 23, 24, 3, 25, 20, 43, 11, 34, 21, 17, 39, 18, 38, 47, 16, 41, 6, 12, 46, 40, 7, 44, 37, 31, 32, 22, 19]
51 1.97196261682243 [41, 49, 0, 30, 5, 33, 7, 28, 20, 47, 2, 29, 13, 31, 10, 50, 34, 17, 1, 39, 16, 23, 43, 15, 18, 19, 24, 9, 26, 14, 12, 27, 40, 25, 48, 11, 46, 42, 45, 44, 8, 4, 22, 37, 36, 32, 21, 38, 3, 35, 6]
52 1.9862385321100917 [2, 7, 23, 4, 50, 0, 15, 29, 25, 47, 24, 11, 32, 31, 42, 48, 16, 49, 3, 51, 5, 13, 40, 34, 41, 37, 36, 14, 26, 33, 9, 30, 12, 1, 18, 45, 44, 43, 21, 17, 46, 27, 20, 8, 28, 10, 6, 38, 19, 22, 39, 35]
53 1.9955156950672646 [2, 41, 24, 48, 27, 7, 50, 0, 16, 19, 11, 29, 14, 22, 4, 12, 25, 1, 28, 43, 15, 42, 3, 9, 49, 8, 45, 26, 44, 52, 34, 38, 31, 21, 18, 51, 47, 13, 40, 39, 17, 10, 46, 5, 36, 35, 30, 37, 33, 32, 20, 23, 6]
54 1.9911894273127753 [50, 53, 4, 49, 2, 32, 21, 47, 19, 48, 35, 24, 0, 52, 25, 30, 42, 33, 37, 18, 46, 29, 3, 31, 9, 34, 51, 23, 44, 7, 39, 22, 1, 45, 8, 11, 41, 40, 20, 38, 5, 36, 12, 16, 10, 17, 6, 14, 43, 15, 27, 13, 26, 28]
55 2.0 [21, 2, 1, 23, 42, 18, 46, 22, 28, 44, 51, 14, 43, 4, 45, 16, 49, 25, 15, 35, 11, 53, 32, 33, 40, 20, 39, 36, 5, 41, 0, 37, 12, 38, 13, 47, 19, 52, 17, 54, 24, 27, 30, 31, 26, 6, 34, 3, 29, 7, 9, 10, 8, 50, 48]
56 2.0 [31, 19, 2, 43, 50, 36, 8, 29, 15, 0, 54, 12, 38, 48, 17, 45, 49, 4, 44, 18, 24, 53, 51, 40, 22, 55, 26, 3, 33, 37, 32, 41, 6, 34, 35, 52, 10, 13, 28, 25, 9, 27, 46, 1, 30, 47, 5, 39, 14, 7, 16, 42, 11, 21, 20, 23]
57 1.9760956175298805 [24, 53, 17, 31, 29, 48, 9, 2, 20, 27, 55, 47, 10, 46, 4, 42, 39, 33, 51, 19, 54, 35, 5, 26, 25, 8, 28, 0, 34, 7, 40, 1, 56, 12, 15, 44, 16, 43, 14, 37, 3, 22, 45, 23, 32, 21, 41, 36, 30, 50, 52, 38, 6, 11, 18, 49, 13]
58 2.0300429184549356 [45, 4, 47, 56, 9, 2, 38, 6, 21, 8, 36, 11, 42, 30, 3, 32, 46, 57, 10, 19, 50, 20, 13, 44, 12, 31, 23, 22, 27, 37, 49, 54, 48, 34, 55, 52, 53, 43, 40, 15, 7, 1, 14, 39, 5, 51, 41, 33, 17, 35, 18, 0, 28, 29, 25, 16, 24, 26]
59 2.0038910505836576 [49, 57, 55, 23, 43, 0, 40, 51, 45, 19, 21, 4, 27, 58, 41, 32, 25, 42, 34, 47, 5, 17, 26, 10, 38, 24, 18, 36, 35, 12, 39, 6, 48, 15, 33, 11, 2, 53, 3, 50, 56, 37, 13, 54, 22, 1, 20, 46, 44, 16, 8, 52, 9, 7, 30, 31, 29, 28, 14]
60 1.9925925925925927 [52, 55, 35, 2, 4, 43, 8, 6, 16, 24, 58, 0, 31, 41, 28, 54, 29, 26, 20, 12, 59, 44, 50, 42, 14, 57, 33, 22, 3, 19, 37, 51, 25, 27, 48, 1, 18, 56, 23, 46, 7, 45, 47, 10, 11, 17, 49, 39, 32, 9, 36, 30, 53, 38, 34, 15, 5, 13, 21, 40]
