13 1.7837837837837838 [1, 2, 4, 11, 7, 0, 3, 10, 5, 12, 6, 9, 8]
14 1.829268292682927 [10, 12, 8, 1, 2, 0, 13, 9, 6, 7, 11, 4, 5, 3]
15 1.7777777777777777 [6, 4, 14, 5, 8, 2, 7, 3, 13, 12, 1, 10, 11, 0, 9]
16 1.86 [0, 9, 3, 15, 5, 7, 13, 11, 10, 12, 14, 4, 8, 1, 6, 2]
17 1.7818181818181817 [9, 7, 11, 0, 8, 14, 5, 6, 2, 10, 16, 12, 4, 15, 1, 3, 13]
18 1.8103448275862069 [13, 17, 10, 16, 5, 12, 7, 3, 1, 15, 4, 8, 2, 0, 14, 11, 6, 9]
19 1.8833333333333333 [3, 1, 10, 13, 5, 8, 2, 0, 17, 18, 16, 15, 11, 4, 7, 14, 9, 12, 6]
20 1.8450704225352113 [9, 3, 16, 8, 1, 19, 11, 7, 17, 0, 6, 4, 14, 13, 15, 12, 10, 2, 18, 5]
21 1.8082191780821917 [0, 7, 3, 17, 9, 5, 19, 1, 12, 2, 14, 20, 15, 13, 6, 16, 10, 11, 4, 8, 18]
22 1.7777777777777777 [0, 19, 12, 18, 16, 4, 6, 9, 20, 1, 15, 5, 13, 14, 2, 17, 8, 21, 7, 3, 10, 11]
23 1.8024691358024691 [2, 19, 14, 0, 21, 7, 15, 17, 16, 18, 3, 1, 9, 8, 20, 5, 12, 6, 13, 10, 4, 22, 11]
24 1.7710843373493976 [2, 4, 13, 22, 7, 17, 23, 10, 15, 1, 16, 0, 19, 21, 14, 11, 3, 5, 6, 12, 18, 20, 9, 8]
25 1.7912087912087913 [18, 20, 11, 4, 14, 7, 2, 21, 3, 15, 6, 23, 9, 17, 19, 10, 16, 13, 22, 24, 8, 0, 5, 12, 1]
26 1.7659574468085106 [18, 21, 14, 25, 12, 2, 19, 17, 0, 8, 20, 5, 24, 23, 1, 4, 13, 22, 15, 7, 16, 11, 3, 9, 6, 10]
27 1.78125 [9, 16, 23, 26, 3, 0, 7, 1, 25, 22, 2, 13, 24, 14, 11, 4, 19, 18, 12, 17, 5, 6, 8, 21, 20, 10, 15]
28 1.8113207547169812 [6, 26, 22, 19, 8, 20, 27, 12, 5, 2, 14, 7, 24, 23, 0, 21, 16, 4, 13, 3, 10, 18, 11, 1, 25, 17, 9, 15]
29 1.798165137614679 [6, 27, 4, 15, 11, 5, 24, 26, 28, 19, 17, 8, 16, 10, 13, 2, 3, 25, 22, 12, 9, 21, 20, 0, 23, 18, 14, 7, 1]
30 1.7777777777777777 [28, 7, 6, 19, 14, 29, 16, 0, 10, 8, 24, 2, 13, 18, 22, 26, 25, 1, 4, 12, 3, 21, 23, 15, 17, 27, 11, 9, 5, 20]
31 1.816 [6, 24, 22, 16, 18, 8, 1, 7, 28, 14, 10, 19, 26, 20, 12, 27, 29, 23, 0, 3, 11, 9, 15, 25, 17, 4, 30, 13, 2, 5, 21]
32 1.7540983606557377 [21, 11, 6, 15, 26, 17, 23, 22, 30, 20, 25, 3, 28, 31, 9, 10, 29, 8, 7, 13, 19, 1, 16, 14, 2, 0, 27, 24, 4, 18, 5, 12]
33 1.7744360902255638 [15, 13, 24, 29, 18, 32, 21, 9, 3, 7, 23, 30, 1, 2, 28, 20, 0, 26, 5, 10, 31, 17, 8, 19, 11, 4, 14, 16, 6, 25, 12, 22, 27]
34 1.7518796992481203 [14, 3, 31, 2, 12, 13, 1, 15, 7, 25, 20, 33, 5, 6, 4, 10, 16, 18, 28, 21, 9, 29, 11, 8, 23, 24, 17, 0, 22, 32, 30, 19, 26, 27]
35 1.7714285714285714 [20, 30, 18, 33, 12, 34, 0, 25, 3, 1, 27, 9, 13, 8, 23, 11, 2, 22, 26, 10, 29, 4, 24, 28, 7, 21, 16, 19, 17, 14, 6, 32, 5, 15, 31]
36 1.793103448275862 [24, 8, 6, 28, 30, 0, 23, 15, 11, 19, 7, 33, 35, 29, 17, 16, 34, 21, 18, 20, 26, 25, 2, 31, 12, 32, 3, 4, 27, 13, 22, 1, 5, 10, 9, 14]
37 1.7466666666666666 [31, 19, 25, 32, 34, 30, 1, 29, 22, 6, 7, 2, 8, 17, 0, 35, 26, 11, 36, 33, 5, 15, 18, 3, 20, 10, 16, 9, 24, 23, 14, 13, 27, 12, 4, 28, 21]
38 1.7861635220125787 [15, 5, 17, 13, 16, 37, 1, 33, 4, 8, 25, 7, 2, 27, 10, 20, 19, 3, 14, 23, 0, 18, 32, 24, 9, 22, 36, 28, 30, 34, 12, 31, 21, 6, 29, 11, 35, 26]
39 1.7806451612903227 [36, 7, 28, 0, 33, 27, 37, 3, 31, 38, 6, 26, 4, 23, 8, 25, 17, 5, 12, 10, 2, 34, 35, 32, 15, 19, 1, 20, 24, 16, 14, 22, 9, 11, 30, 29, 21, 13, 18]
40 1.7588235294117647 [1, 36, 32, 13, 35, 29, 34, 22, 24, 19, 31, 4, 7, 3, 17, 33, 16, 6, 2, 39, 20, 23, 30, 9, 11, 21, 26, 0, 14, 15, 27, 38, 18, 12, 8, 25, 37, 28, 10, 5]
41 1.7861271676300579 [1, 22, 6, 3, 18, 38, 32, 14, 17, 8, 0, 27, 24, 13, 30, 11, 19, 31, 7, 23, 28, 25, 2, 35, 21, 5, 29, 4, 39, 12, 36, 9, 10, 33, 37, 15, 16, 26, 40, 34, 20]
42 1.7640449438202248 [17, 3, 20, 6, 31, 5, 1, 41, 32, 25, 34, 39, 8, 9, 35, 22, 33, 0, 37, 24, 11, 14, 15, 28, 21, 40, 4, 12, 16, 38, 29, 30, 13, 18, 10, 36, 7, 19, 26, 27, 23, 2]
43 1.7783783783783784 [22, 3, 38, 0, 31, 39, 30, 11, 12, 26, 17, 6, 37, 5, 9, 19, 33, 27, 2, 34, 29, 42, 21, 32, 14, 16, 35, 20, 10, 13, 18, 41, 40, 15, 36, 7, 8, 1, 28, 24, 23, 25, 4]
44 1.7421052631578948 [27, 41, 22, 3, 21, 1, 24, 35, 18, 16, 6, 34, 17, 4, 20, 0, 37, 8, 12, 43, 9, 10, 39, 32, 42, 25, 2, 14, 40, 30, 26, 29, 15, 36, 13, 31, 33, 11, 28, 5, 19, 7, 38, 23]
45 1.7563451776649746 [8, 12, 39, 15, 2, 0, 43, 11, 29, 16, 35, 41, 18, 21, 10, 33, 4, 31, 19, 36, 3, 17, 27, 23, 44, 30, 28, 13, 1, 37, 22, 20, 6, 42, 32, 34, 25, 38, 26, 24, 7, 14, 9, 40, 5]
46 1.7427184466019416 [42, 9, 38, 3, 21, 26, 40, 17, 36, 35, 27, 33, 7, 6, 45, 2, 22, 43, 8, 12, 44, 10, 30, 28, 11, 34, 18, 24, 19, 15, 20, 0, 16, 13, 32, 39, 37, 4, 14, 31, 1, 41, 5, 25, 23, 29]
47 1.7635467980295567 [44, 4, 2, 42, 40, 1, 6, 30, 45, 25, 10, 27, 36, 22, 28, 23, 5, 37, 24, 12, 14, 41, 16, 7, 19, 33, 3, 11, 34, 26, 15, 21, 0, 35, 17, 43, 18, 13, 39, 32, 46, 20, 8, 29, 38, 31, 9]
48 1.7677725118483412 [40, 7, 9, 45, 11, 16, 25, 34, 23, 35, 41, 43, 1, 13, 47, 22, 36, 15, 10, 29, 4, 19, 28, 20, 30, 38, 21, 44, 17, 32, 42, 27, 14, 39, 37, 8, 26, 0, 46, 18, 33, 24, 2, 31, 12, 5, 6, 3]
49 1.7649769585253456 [28, 5, 42, 11, 1, 44, 6, 32, 25, 36, 29, 4, 30, 35, 8, 13, 17, 10, 0, 47, 12, 9, 19, 48, 15, 3, 27, 46, 39, 7, 16, 26, 31, 40, 41, 22, 37, 18, 2, 45, 24, 14, 34, 21, 38, 33, 43, 23, 20]
50 1.75 [1, 30, 48, 8, 46, 7, 2, 21, 40, 25, 11, 44, 0, 33, 27, 42, 18, 32, 17, 49, 12, 20, 9, 23, 37, 16, 3, 36, 13, 31, 34, 38, 47, 24, 28, 26, 45, 19, 15, 41, 10, 29, 22, 4, 39, 43, 14, 35, 5, 6]
51 1.7522935779816513 [44, 46, 12, 50, 37, 45, 43, 10, 27, 2, 20, 36, 48, 26, 17, 41, 15, 0, 7, 19, 9, 40, 5, 13, 11, 18, 30, 6, 39, 28, 29, 3, 22, 34, 24, 4, 35, 23, 25, 33, 32, 31, 21, 14, 16, 38, 49, 8, 47, 1, 42]
52 1.7835497835497836 [24, 12, 38, 37, 26, 15, 42, 39, 47, 50, 4, 19, 18, 41, 22, 7, 3, 0, 49, 25, 8, 27, 29, 13, 51, 6, 45, 43, 21, 44, 40, 23, 28, 2, 46, 20, 17, 34, 31, 35, 11, 16, 1, 36, 48, 14, 5, 9, 33, 32, 30, 10]
53 1.7510373443983402 [5, 21, 39, 14, 51, 7, 24, 22, 38, 4, 48, 28, 42, 15, 41, 19, 10, 50, 26, 45, 13, 40, 8, 43, 17, 32, 44, 18, 2, 35, 3, 0, 9, 34, 23, 49, 16, 46, 52, 6, 37, 11, 29, 33, 1, 30, 36, 47, 31, 27, 25, 12, 20]
54 1.7530864197530864 [36, 12, 5, 33, 21, 28, 37, 50, 25, 6, 16, 8, 31, 43, 30, 18, 11, 24, 52, 27, 4, 51, 9, 10, 7, 26, 40, 14, 47, 1, 15, 23, 35, 45, 32, 41, 0, 49, 53, 13, 29, 42, 19, 48, 20, 3, 44, 17, 46, 2, 39, 38, 34, 22]
55 1.756 [30, 46, 53, 5, 26, 9, 29, 19, 8, 47, 15, 31, 50, 2, 52, 11, 32, 0, 13, 1, 18, 4, 25, 36, 14, 38, 39, 27, 23, 35, 7, 42, 6, 34, 51, 48, 41, 33, 54, 21, 43, 20, 10, 17, 16, 22, 49, 24, 40, 12, 28, 3, 44, 45, 37]
56 1.782442748091603 [48, 10, 24, 43, 36, 13, 1, 17, 54, 5, 32, 2, 41, 33, 45, 16, 51, 19, 31, 11, 35, 30, 9, 29, 40, 28, 25, 4, 6, 49, 38, 27, 0, 34, 8, 21, 55, 14, 26, 47, 15, 52, 12, 44, 42, 3, 23, 22, 7, 53, 50, 18, 46, 20, 39, 37]
57 1.7386363636363635 [55, 52, 49, 46, 22, 54, 7, 17, 53, 19, 20, 48, 4, 42, 15, 33, 12, 11, 43, 25, 3, 36, 14, 31, 1, 21, 29, 30, 18, 23, 6, 10, 39, 56, 8, 9, 35, 5, 27, 32, 44, 41, 47, 24, 0, 28, 13, 38, 50, 37, 51, 34, 16, 26, 45, 40, 2]
58 1.7739463601532568 [13, 32, 50, 17, 10, 56, 11, 6, 12, 21, 46, 57, 36, 25, 30, 15, 27, 38, 52, 3, 47, 9, 7, 19, 28, 48, 54, 26, 20, 16, 41, 40, 42, 31, 43, 49, 0, 33, 4, 22, 44, 18, 24, 55, 1, 29, 23, 5, 14, 35, 8, 2, 37, 39, 45, 34, 51, 53]
59 1.7366412213740459 [45, 1, 47, 28, 48, 36, 7, 17, 5, 0, 53, 11, 46, 2, 40, 20, 35, 25, 10, 15, 9, 18, 12, 8, 21, 39, 32, 3, 55, 50, 13, 37, 54, 38, 43, 30, 29, 4, 34, 41, 6, 42, 58, 33, 56, 27, 16, 19, 26, 14, 31, 24, 51, 44, 22, 57, 23, 52, 49]
60 1.7326007326007327 [28, 43, 8, 6, 2, 45, 15, 36, 38, 5, 14, 49, 22, 4, 24, 50, 26, 58, 25, 19, 0, 21, 13, 47, 54, 37, 44, 3, 52, 30, 34, 16, 12, 1, 31, 56, 39, 57, 42, 27, 11, 53, 18, 20, 46, 41, 40, 48, 51, 32, 55, 7, 33, 59, 35, 10, 9, 17, 29, 23]
