13 2.0 [9, 2, 11, 0, 10, 12, 4, 3, 8, 1, 7, 5, 6]
14 2.026315789473684 [0, 1, 4, 8, 2, 12, 3, 6, 13, 7, 5, 10, 11, 9]
15 2.022727272727273 [2, 6, 12, 0, 14, 4, 5, 3, 10, 1, 8, 7, 9, 11, 13]
16 2.0408163265306123 [1, 7, 13, 3, 9, 0, 15, 5, 6, 4, 2, 11, 12, 14, 10, 8]
17 2.037037037037037 [7, 16, 0, 12, 3, 9, 14, 13, 1, 15, 2, 5, 6, 4, 11, 10, 8]
18 2.0 [8, 17, 0, 3, 10, 15, 13, 9, 1, 11, 16, 12, 14, 2, 5, 4, 7, 6]
19 2.086206896551724 [15, 17, 3, 5, 1, 4, 18, 2, 13, 0, 10, 14, 11, 8, 9, 6, 12, 16, 7]
20 2.0615384615384613 [16, 3, 19, 1, 17, 14, 6, 2, 15, 0, 9, 7, 18, 4, 11, 5, 8, 13, 12, 10]
21 2.015151515151515 [17, 19, 1, 18, 3, 2, 12, 0, 6, 20, 5, 14, 13, 9, 15, 4, 16, 7, 8, 11, 10]
22 2.0273972602739727 [20, 16, 3, 21, 6, 18, 17, 0, 19, 1, 12, 9, 10, 14, 13, 2, 4, 7, 15, 8, 5, 11]
23 2.051948051948052 [3, 1, 18, 0, 21, 6, 22, 9, 12, 8, 4, 20, 5, 7, 16, 14, 19, 2, 17, 10, 11, 15, 13]
24 2.0365853658536586 [7, 19, 21, 2, 17, 9, 18, 0, 20, 4, 22, 11, 13, 10, 15, 8, 23, 6, 5, 3, 16, 1, 14, 12]
25 2.023529411764706 [4, 20, 23, 7, 0, 2, 6, 24, 5, 13, 11, 22, 17, 18, 3, 16, 12, 1, 9, 10, 21, 19, 15, 8, 14]
26 2.090909090909091 [7, 0, 21, 2, 24, 4, 11, 14, 9, 1, 10, 25, 8, 3, 12, 18, 23, 19, 16, 5, 15, 13, 6, 22, 20, 17]
27 2.021276595744681 [16, 25, 2, 0, 5, 18, 4, 26, 23, 9, 11, 7, 1, 24, 21, 17, 10, 20, 22, 3, 6, 8, 14, 12, 15, 13, 19]
28 2.0520833333333335 [24, 6, 25, 22, 2, 17, 23, 19, 8, 0, 7, 18, 4, 5, 12, 3, 20, 1, 26, 10, 13, 9, 21, 11, 15, 27, 16, 14]
29 2.064814814814815 [2, 19, 25, 0, 27, 8, 4, 15, 17, 6, 26, 10, 28, 12, 23, 9, 18, 3, 16, 7, 1, 21, 20, 24, 5, 13, 11, 22, 14]
30 2.0545454545454547 [0, 6, 24, 28, 2, 4, 22, 20, 23, 8, 1, 29, 10, 5, 3, 14, 12, 21, 13, 18, 19, 16, 26, 7, 15, 25, 27, 9, 11, 17]
31 2.0707964601769913 [24, 0, 29, 2, 28, 8, 18, 4, 20, 3, 14, 26, 10, 25, 1, 16, 6, 7, 30, 27, 19, 17, 9, 5, 12, 13, 22, 11, 15, 21, 23]
32 2.0166666666666666 [29, 25, 31, 15, 7, 9, 0, 3, 27, 5, 8, 23, 19, 24, 17, 21, 13, 11, 16, 30, 1, 22, 20, 2, 4, 26, 10, 28, 18, 12, 14, 6]
33 2.0232558139534884 [0, 26, 2, 32, 11, 17, 5, 15, 24, 1, 25, 20, 13, 7, 30, 9, 6, 22, 18, 12, 3, 14, 19, 16, 31, 28, 4, 27, 29, 10, 8, 23, 21]
34 2.0476190476190474 [1, 7, 18, 3, 23, 0, 16, 31, 21, 22, 9, 32, 19, 20, 17, 8, 27, 5, 25, 6, 4, 29, 2, 12, 14, 13, 10, 33, 28, 30, 24, 15, 26, 11]
35 2.0634920634920637 [32, 12, 33, 13, 0, 14, 1, 5, 34, 3, 10, 30, 11, 4, 27, 29, 23, 9, 7, 18, 25, 21, 16, 15, 17, 31, 2, 6, 28, 8, 26, 22, 19, 24, 20]
36 2.007518796992481 [28, 17, 31, 33, 30, 10, 35, 13, 0, 26, 2, 3, 19, 27, 12, 15, 5, 11, 1, 16, 22, 29, 24, 32, 4, 7, 6, 8, 14, 21, 18, 25, 9, 20, 34, 23]
37 2.0296296296296297 [21, 1, 35, 32, 3, 19, 5, 20, 36, 8, 34, 2, 24, 27, 22, 30, 0, 25, 23, 26, 29, 10, 15, 9, 6, 13, 7, 31, 4, 14, 11, 12, 17, 18, 16, 28, 33]
38 2.0354609929078014 [1, 0, 3, 20, 26, 6, 35, 5, 22, 10, 33, 15, 2, 8, 9, 18, 23, 7, 25, 37, 13, 34, 4, 31, 28, 32, 16, 14, 11, 12, 17, 21, 36, 24, 27, 19, 30, 29]
39 2.0463576158940397 [10, 0, 20, 3, 35, 12, 33, 25, 13, 11, 36, 1, 28, 23, 5, 37, 22, 30, 26, 29, 21, 27, 24, 31, 4, 32, 38, 8, 9, 2, 15, 34, 18, 14, 16, 6, 17, 19, 7]
40 2.0375 [29, 31, 1, 34, 3, 2, 11, 36, 21, 26, 13, 0, 39, 28, 16, 12, 6, 18, 19, 38, 4, 27, 8, 9, 17, 24, 14, 32, 7, 23, 22, 25, 30, 33, 37, 10, 35, 15, 5, 20]
41 2.0584415584415585 [0, 3, 6, 37, 4, 39, 5, 30, 11, 35, 1, 9, 34, 13, 32, 14, 36, 21, 12, 28, 8, 16, 7, 15, 27, 10, 19, 24, 23, 29, 40, 33, 31, 2, 38, 22, 20, 25, 17, 26, 18]
42 2.0580645161290323 [41, 36, 20, 39, 17, 18, 37, 0, 26, 19, 4, 25, 14, 27, 15, 12, 38, 1, 16, 2, 29, 13, 6, 5, 8, 7, 28, 40, 33, 31, 35, 34, 3, 30, 10, 11, 9, 32, 22, 21, 23, 24]
43 1.9884393063583814 [4, 17, 34, 38, 20, 18, 2, 28, 25, 11, 6, 0, 31, 36, 24, 19, 39, 3, 13, 1, 42, 30, 32, 33, 29, 27, 12, 26, 22, 5, 41, 21, 23, 40, 14, 35, 9, 37, 15, 16, 7, 10, 8]
44 1.977900552486188 [15, 26, 0, 37, 6, 9, 21, 27, 20, 1, 28, 3, 23, 22, 25, 12, 40, 7, 42, 2, 30, 34, 29, 24, 4, 39, 14, 38, 8, 36, 32, 35, 18, 43, 19, 41, 17, 10, 13, 5, 16, 11, 33, 31]
45 2.011111111111111 [0, 26, 35, 16, 43, 18, 2, 3, 29, 1, 23, 32, 27, 12, 14, 28, 6, 33, 15, 25, 31, 17, 21, 24, 8, 30, 4, 37, 5, 44, 38, 10, 9, 11, 36, 34, 13, 41, 7, 40, 42, 19, 22, 39, 20]
46 1.9837837837837837 [37, 4, 42, 44, 39, 15, 30, 7, 41, 28, 21, 45, 2, 13, 14, 6, 0, 29, 3, 33, 12, 31, 34, 43, 9, 5, 32, 22, 36, 18, 40, 35, 19, 16, 1, 17, 8, 11, 20, 38, 10, 24, 26, 25, 23, 27]
47 1.989071038251366 [42, 13, 45, 34, 1, 39, 38, 24, 27, 36, 35, 21, 37, 3, 44, 26, 41, 25, 18, 40, 22, 10, 23, 19, 12, 0, 16, 4, 2, 6, 11, 7, 15, 17, 20, 5, 46, 43, 28, 30, 8, 32, 9, 33, 14, 29, 31]
48 1.9747474747474747 [23, 37, 28, 1, 46, 11, 40, 31, 13, 17, 34, 47, 27, 45, 19, 43, 38, 16, 44, 4, 39, 22, 30, 42, 21, 0, 18, 41, 2, 35, 7, 15, 32, 9, 12, 5, 14, 36, 10, 33, 8, 29, 6, 3, 25, 24, 20, 26]
49 1.9900497512437811 [42, 19, 44, 2, 17, 25, 38, 40, 23, 0, 27, 29, 41, 33, 21, 18, 4, 20, 22, 28, 47, 10, 32, 43, 48, 13, 15, 11, 26, 5, 12, 35, 36, 3, 39, 37, 1, 46, 8, 9, 7, 16, 24, 14, 31, 6, 30, 45, 34]
50 2.0 [26, 13, 30, 2, 48, 33, 7, 1, 31, 4, 42, 23, 45, 28, 17, 29, 24, 0, 27, 15, 18, 32, 20, 16, 21, 14, 35, 11, 43, 12, 47, 25, 9, 46, 8, 49, 3, 36, 44, 22, 5, 10, 40, 34, 19, 6, 41, 39, 37, 38]
51 1.9953051643192488 [33, 47, 11, 20, 37, 26, 24, 30, 31, 49, 48, 2, 4, 15, 43, 18, 14, 50, 13, 17, 45, 32, 44, 28, 21, 39, 0, 3, 25, 1, 34, 8, 46, 35, 5, 36, 9, 6, 10, 7, 27, 16, 29, 23, 41, 40, 42, 12, 38, 19, 22]
52 1.9723502304147464 [0, 31, 47, 7, 14, 41, 38, 50, 25, 1, 45, 11, 3, 44, 12, 29, 46, 42, 2, 43, 30, 49, 34, 39, 18, 22, 40, 32, 16, 24, 21, 19, 15, 33, 20, 23, 48, 4, 51, 9, 10, 36, 35, 37, 27, 8, 5, 28, 13, 6, 17, 26]
53 1.9821428571428572 [48, 50, 28, 14, 52, 18, 45, 2, 4, 41, 38, 29, 39, 1, 32, 47, 21, 40, 16, 7, 11, 12, 43, 17, 42, 25, 9, 51, 15, 23, 19, 13, 5, 36, 34, 30, 31, 37, 27, 22, 6, 24, 44, 3, 10, 8, 20, 0, 46, 26, 49, 33, 35]
54 1.9780701754385965 [53, 4, 2, 42, 7, 50, 9, 15, 46, 3, 52, 16, 19, 28, 18, 37, 8, 49, 11, 13, 10, 44, 31, 45, 21, 47, 20, 51, 29, 17, 33, 32, 14, 1, 35, 39, 0, 48, 25, 34, 12, 36, 43, 26, 27, 41, 24, 40, 23, 30, 22, 38, 5, 6]
55 1.9874476987447698 [43, 7, 46, 30, 2, 32, 53, 49, 11, 33, 14, 4, 37, 9, 5, 25, 8, 21, 28, 12, 31, 44, 0, 41, 3, 35, 47, 19, 16, 23, 51, 24, 36, 39, 22, 34, 20, 54, 52, 18, 50, 13, 48, 17, 45, 6, 40, 27, 38, 42, 1, 10, 29, 26, 15]
56 1.9913793103448276 [38, 22, 2, 43, 15, 52, 17, 1, 6, 8, 50, 33, 54, 25, 34, 16, 4, 10, 29, 53, 13, 0, 12, 40, 14, 7, 48, 11, 55, 3, 5, 20, 21, 51, 19, 24, 45, 31, 44, 32, 30, 28, 9, 27, 26, 18, 42, 23, 41, 39, 36, 47, 37, 49, 46, 35]
57 1.9588477366255144 [1, 42, 51, 4, 55, 0, 19, 22, 46, 44, 6, 8, 29, 13, 27, 5, 35, 33, 20, 53, 48, 50, 47, 43, 52, 24, 28, 23, 9, 31, 21, 17, 56, 34, 18, 37, 15, 2, 10, 36, 30, 38, 14, 3, 45, 49, 7, 12, 16, 39, 54, 41, 32, 11, 26, 40, 25]
58 2.056768558951965 [23, 12, 47, 42, 49, 25, 48, 2, 56, 19, 44, 43, 50, 57, 24, 21, 40, 36, 22, 41, 20, 38, 17, 34, 37, 13, 39, 0, 55, 54, 52, 30, 27, 1, 32, 35, 26, 6, 4, 28, 31, 8, 7, 10, 5, 33, 46, 3, 53, 45, 51, 15, 18, 29, 16, 14, 9, 11]
59 1.9835390946502058 [27, 55, 4, 6, 8, 23, 15, 5, 2, 7, 57, 30, 56, 36, 3, 51, 38, 34, 1, 33, 25, 35, 26, 17, 12, 28, 58, 14, 42, 29, 32, 10, 37, 24, 18, 53, 19, 16, 31, 45, 21, 20, 41, 22, 49, 0, 9, 40, 11, 43, 54, 50, 13, 39, 47, 46, 52, 44, 48]
60 1.9695817490494296 [22, 10, 33, 6, 28, 16, 37, 44, 20, 56, 8, 43, 52, 41, 35, 34, 3, 36, 57, 4, 24, 23, 26, 42, 18, 58, 1, 14, 25, 12, 46, 15, 39, 17, 45, 13, 27, 48, 11, 50, 7, 21, 54, 2, 47, 51, 59, 49, 31, 38, 0, 40, 30, 32, 19, 5, 9, 29, 55, 53]
