13 2.0 [2, 9, 0, 11, 4, 7, 3, 12, 1, 5, 10, 8, 6]
14 2.0256410256410255 [2, 0, 4, 8, 3, 12, 1, 6, 13, 7, 10, 11, 9, 5]
15 2.046511627906977 [13, 6, 12, 2, 14, 0, 10, 11, 8, 7, 9, 4, 1, 3, 5]
16 2.0625 [7, 1, 14, 3, 13, 0, 15, 9, 2, 8, 11, 10, 12, 5, 4, 6]
17 2.018181818181818 [9, 1, 16, 12, 7, 8, 10, 14, 13, 0, 3, 2, 15, 5, 6, 4, 11]
18 2.0526315789473686 [0, 11, 3, 15, 5, 13, 1, 12, 17, 4, 14, 2, 16, 8, 10, 6, 9, 7]
19 2.0508474576271185 [15, 5, 18, 0, 17, 13, 8, 14, 1, 16, 7, 10, 6, 2, 9, 3, 4, 12, 11]
20 2.0491803278688523 [1, 3, 6, 0, 5, 16, 4, 18, 14, 15, 2, 17, 9, 7, 11, 10, 19, 13, 8, 12]
21 2.0441176470588234 [1, 6, 17, 0, 19, 3, 15, 16, 9, 5, 8, 18, 7, 12, 4, 11, 20, 2, 14, 13, 10]
22 2.0422535211267605 [3, 1, 18, 0, 20, 6, 2, 9, 8, 16, 17, 4, 19, 12, 10, 7, 21, 5, 11, 14, 15, 13]
23 2.039473684210526 [6, 18, 3, 1, 21, 16, 17, 8, 7, 10, 2, 0, 9, 19, 12, 5, 22, 4, 14, 20, 15, 13, 11]
24 2.037974683544304 [22, 4, 23, 13, 19, 2, 16, 21, 20, 15, 7, 0, 6, 10, 5, 9, 12, 3, 8, 1, 18, 17, 14, 11]
25 2.0348837209302326 [2, 4, 20, 23, 13, 0, 8, 17, 10, 12, 22, 3, 7, 11, 24, 1, 21, 9, 15, 16, 19, 18, 14, 5, 6]
26 2.0898876404494384 [7, 0, 21, 2, 24, 4, 19, 18, 1, 11, 20, 9, 10, 23, 8, 3, 12, 25, 14, 13, 16, 5, 15, 6, 22, 17]
27 2.0543478260869565 [21, 23, 2, 22, 25, 4, 11, 24, 7, 26, 14, 1, 13, 18, 20, 12, 3, 19, 0, 16, 9, 17, 10, 8, 15, 5, 6]
28 2.086021505376344 [24, 20, 26, 25, 22, 8, 2, 19, 0, 4, 10, 21, 9, 1, 23, 3, 6, 15, 12, 11, 13, 27, 5, 17, 18, 16, 14, 7]
29 2.0865384615384617 [4, 25, 0, 21, 27, 2, 3, 28, 15, 19, 12, 1, 8, 23, 10, 13, 14, 26, 6, 20, 17, 18, 24, 16, 7, 22, 5, 11, 9]
30 2.0636363636363635 [2, 24, 28, 0, 4, 16, 20, 10, 14, 29, 22, 6, 26, 3, 25, 18, 17, 1, 19, 8, 21, 12, 11, 27, 9, 23, 7, 5, 13, 15]
31 2.0689655172413794 [28, 8, 30, 16, 2, 24, 6, 10, 0, 9, 12, 4, 26, 22, 18, 29, 20, 17, 3, 23, 5, 19, 11, 21, 7, 27, 1, 25, 14, 15, 13]
32 2.0813008130081303 [0, 23, 29, 3, 15, 9, 19, 17, 31, 1, 21, 5, 11, 16, 20, 22, 27, 4, 28, 7, 8, 6, 13, 25, 24, 30, 14, 2, 12, 18, 10, 26]
33 2.04 [28, 13, 30, 17, 0, 24, 9, 11, 32, 1, 20, 7, 22, 8, 19, 26, 27, 23, 15, 14, 3, 2, 5, 16, 18, 6, 29, 4, 21, 31, 25, 10, 12]
34 2.0569105691056913 [31, 18, 33, 0, 27, 3, 20, 25, 19, 10, 21, 16, 1, 12, 17, 29, 14, 23, 22, 24, 26, 30, 5, 4, 2, 8, 9, 28, 7, 6, 32, 13, 15, 11]
35 2.065040650406504 [0, 3, 32, 1, 30, 5, 16, 34, 27, 2, 18, 9, 7, 8, 29, 28, 17, 12, 6, 14, 31, 15, 4, 23, 10, 13, 11, 21, 33, 19, 22, 25, 26, 20, 24]
36 2.0217391304347827 [33, 10, 1, 35, 31, 17, 0, 32, 3, 26, 19, 13, 8, 22, 28, 27, 2, 30, 34, 18, 12, 20, 4, 9, 15, 11, 29, 5, 16, 24, 14, 7, 25, 6, 23, 21]
37 2.0642857142857145 [0, 34, 3, 26, 36, 29, 2, 31, 5, 10, 30, 4, 32, 8, 35, 19, 13, 22, 17, 11, 24, 1, 18, 20, 12, 7, 9, 6, 23, 21, 33, 15, 14, 16, 28, 27, 25]
38 2.0616438356164384 [30, 0, 32, 3, 33, 5, 35, 10, 1, 7, 28, 29, 2, 37, 20, 31, 23, 13, 4, 22, 25, 6, 27, 15, 18, 11, 14, 16, 21, 36, 26, 8, 24, 9, 34, 19, 12, 17]
39 2.054421768707483 [20, 1, 35, 5, 0, 10, 15, 38, 8, 33, 23, 37, 13, 36, 22, 21, 34, 18, 19, 17, 31, 12, 30, 28, 3, 27, 32, 25, 24, 4, 26, 29, 2, 6, 9, 16, 14, 11, 7]
40 2.0794701986754967 [4, 31, 1, 34, 6, 5, 32, 3, 0, 24, 16, 26, 36, 23, 11, 33, 25, 35, 14, 37, 28, 38, 27, 39, 2, 19, 21, 12, 22, 17, 18, 20, 9, 30, 15, 10, 7, 13, 29, 8]
41 2.03680981595092 [7, 11, 3, 9, 40, 1, 33, 21, 6, 37, 2, 16, 17, 27, 14, 25, 12, 24, 30, 15, 23, 22, 4, 29, 35, 13, 28, 32, 39, 0, 5, 38, 8, 10, 36, 34, 19, 20, 18, 26, 31]
42 2.049689440993789 [1, 3, 6, 22, 25, 38, 9, 0, 40, 8, 29, 28, 12, 26, 7, 36, 20, 23, 4, 37, 11, 24, 31, 27, 39, 17, 18, 21, 30, 41, 33, 32, 34, 35, 10, 15, 5, 19, 2, 14, 13, 16]
43 2.0421686746987953 [4, 6, 1, 34, 5, 22, 39, 28, 41, 11, 30, 13, 36, 42, 35, 3, 14, 17, 20, 37, 16, 38, 9, 40, 0, 26, 31, 27, 24, 23, 8, 10, 25, 29, 33, 15, 7, 12, 32, 2, 21, 19, 18]
44 2.0166666666666666 [40, 42, 24, 0, 37, 7, 13, 32, 38, 18, 43, 29, 30, 21, 1, 27, 3, 15, 39, 34, 9, 33, 41, 2, 20, 31, 19, 26, 23, 36, 22, 8, 14, 35, 4, 25, 11, 12, 16, 28, 17, 10, 5, 6]
45 2.005714285714286 [1, 41, 3, 44, 6, 23, 0, 37, 26, 33, 25, 15, 21, 22, 16, 43, 39, 27, 30, 35, 38, 12, 5, 4, 2, 17, 34, 40, 14, 42, 36, 13, 29, 32, 24, 10, 11, 28, 8, 31, 9, 7, 19, 20, 18]
46 2.042105263157895 [10, 12, 1, 42, 3, 31, 39, 7, 2, 0, 25, 15, 36, 18, 40, 21, 30, 16, 45, 14, 38, 27, 44, 26, 5, 29, 41, 9, 28, 11, 19, 34, 20, 17, 13, 35, 43, 4, 6, 8, 23, 22, 24, 37, 33, 32]
47 2.051546391752577 [33, 45, 6, 34, 0, 36, 46, 9, 10, 30, 8, 21, 31, 24, 2, 12, 27, 28, 11, 43, 1, 42, 44, 18, 4, 20, 22, 7, 40, 39, 19, 35, 25, 5, 26, 3, 41, 16, 17, 14, 13, 32, 38, 29, 15, 23, 37]
48 2.046153846153846 [0, 19, 43, 4, 31, 2, 13, 16, 47, 15, 11, 5, 12, 46, 8, 3, 37, 40, 45, 34, 35, 32, 25, 33, 22, 14, 41, 21, 7, 28, 30, 17, 44, 26, 1, 18, 10, 23, 27, 29, 42, 6, 39, 38, 36, 9, 24, 20]
49 2.004878048780488 [47, 25, 4, 29, 27, 2, 48, 19, 22, 15, 38, 30, 16, 42, 44, 40, 32, 3, 10, 8, 13, 43, 7, 34, 21, 36, 0, 26, 35, 33, 28, 31, 24, 14, 46, 12, 45, 11, 39, 9, 41, 1, 37, 18, 17, 20, 23, 5, 6]
50 2.0238095238095237 [5, 45, 2, 13, 26, 0, 49, 7, 10, 11, 42, 43, 33, 23, 39, 3, 48, 24, 12, 28, 9, 29, 6, 1, 27, 17, 36, 35, 47, 30, 46, 20, 41, 37, 15, 40, 38, 16, 19, 44, 22, 18, 14, 25, 8, 21, 32, 4, 31, 34]
51 2.0428571428571427 [20, 30, 22, 46, 33, 5, 39, 31, 2, 36, 10, 15, 50, 43, 37, 8, 44, 21, 49, 24, 26, 23, 47, 25, 28, 48, 27, 41, 40, 38, 9, 6, 7, 42, 13, 29, 18, 11, 1, 17, 19, 14, 45, 4, 35, 34, 32, 0, 16, 3, 12]
52 1.9823788546255507 [41, 1, 47, 4, 50, 0, 44, 27, 21, 31, 7, 45, 9, 42, 24, 8, 38, 14, 6, 12, 2, 18, 51, 37, 11, 43, 29, 10, 46, 23, 3, 25, 13, 49, 34, 16, 33, 26, 17, 30, 19, 48, 20, 5, 36, 15, 35, 39, 22, 40, 28, 32]
53 1.9953917050691243 [0, 11, 2, 43, 46, 4, 16, 48, 7, 44, 1, 27, 13, 3, 14, 36, 45, 9, 31, 51, 32, 47, 23, 24, 10, 21, 38, 37, 18, 41, 22, 17, 26, 50, 29, 25, 28, 30, 34, 52, 33, 49, 35, 39, 8, 40, 42, 19, 5, 6, 12, 20, 15]
54 1.9912663755458515 [21, 14, 3, 43, 11, 16, 39, 49, 12, 0, 44, 7, 15, 47, 25, 9, 30, 52, 41, 48, 40, 42, 53, 8, 10, 35, 2, 32, 46, 31, 23, 37, 22, 5, 38, 18, 24, 34, 4, 33, 1, 36, 6, 51, 20, 50, 28, 19, 45, 13, 29, 17, 27, 26]
55 1.9872881355932204 [5, 2, 49, 0, 51, 9, 35, 53, 46, 12, 48, 28, 21, 11, 4, 23, 33, 40, 30, 47, 14, 13, 18, 19, 7, 27, 34, 42, 41, 44, 16, 37, 38, 50, 3, 8, 10, 54, 6, 39, 25, 36, 17, 31, 1, 32, 29, 22, 52, 26, 15, 45, 43, 24, 20]
56 1.9877049180327868 [48, 29, 40, 22, 8, 27, 54, 24, 13, 17, 2, 43, 20, 31, 53, 30, 21, 45, 6, 36, 33, 38, 0, 11, 55, 10, 32, 12, 34, 50, 35, 52, 49, 39, 23, 4, 28, 19, 15, 18, 3, 25, 14, 26, 7, 46, 51, 42, 41, 9, 44, 16, 47, 1, 37, 5]
57 2.016949152542373 [31, 51, 8, 38, 2, 53, 4, 22, 55, 29, 15, 20, 54, 56, 12, 48, 35, 46, 0, 37, 3, 33, 32, 34, 41, 24, 23, 52, 1, 5, 36, 26, 25, 30, 10, 50, 17, 16, 11, 49, 18, 19, 14, 9, 6, 13, 21, 47, 7, 44, 43, 40, 39, 28, 45, 27, 42]
58 1.9959514170040487 [32, 28, 56, 54, 30, 6, 50, 52, 57, 17, 13, 27, 42, 2, 36, 53, 8, 15, 55, 25, 43, 19, 0, 31, 16, 45, 14, 29, 12, 4, 7, 44, 5, 48, 46, 21, 1, 20, 23, 24, 47, 22, 49, 10, 51, 3, 37, 34, 33, 9, 38, 40, 11, 41, 39, 35, 26, 18]
59 2.0203252032520327 [13, 27, 55, 2, 36, 45, 42, 28, 57, 51, 40, 23, 21, 17, 8, 0, 30, 29, 19, 32, 6, 47, 15, 10, 31, 12, 38, 11, 50, 9, 58, 4, 49, 46, 53, 43, 44, 48, 54, 41, 34, 52, 56, 35, 7, 18, 16, 33, 14, 37, 5, 1, 25, 26, 39, 24, 22, 20, 3]
60 1.9961977186311788 [4, 31, 54, 8, 43, 58, 10, 41, 46, 1, 56, 37, 13, 36, 24, 39, 9, 12, 28, 20, 6, 42, 18, 29, 50, 30, 45, 52, 26, 19, 16, 59, 48, 47, 25, 35, 44, 33, 57, 34, 22, 5, 55, 49, 53, 0, 14, 51, 7, 2, 32, 38, 15, 3, 11, 17, 27, 40, 21, 23]
