13 2.0 [7, 2, 9, 11, 8, 0, 10, 4, 3, 1, 12, 5, 6]
14 2.0476190476190474 [2, 4, 8, 0, 12, 3, 6, 13, 7, 10, 5, 11, 1, 9]
15 2.0232558139534884 [10, 6, 14, 0, 12, 13, 11, 8, 2, 7, 1, 9, 4, 5, 3]
16 2.06 [1, 7, 13, 3, 11, 0, 5, 6, 15, 4, 12, 2, 9, 10, 8, 14]
17 2.037037037037037 [10, 16, 0, 3, 5, 9, 14, 4, 1, 15, 2, 12, 11, 13, 7, 6, 8]
18 2.0338983050847457 [0, 11, 15, 3, 16, 5, 13, 1, 12, 4, 14, 8, 9, 7, 17, 2, 6, 10]
19 2.064516129032258 [15, 0, 18, 3, 10, 13, 5, 1, 17, 16, 11, 4, 12, 7, 14, 8, 2, 9, 6]
20 2.0483870967741935 [16, 14, 0, 19, 15, 1, 17, 3, 6, 2, 9, 4, 18, 11, 5, 7, 10, 13, 8, 12]
21 2.0454545454545454 [0, 3, 7, 1, 2, 17, 11, 5, 20, 6, 19, 4, 9, 10, 8, 14, 15, 13, 18, 12, 16]
22 2.0405405405405403 [4, 18, 1, 6, 20, 10, 12, 19, 9, 0, 21, 5, 2, 15, 14, 11, 3, 17, 16, 13, 7, 8]
23 2.0273972602739727 [18, 21, 1, 13, 22, 15, 0, 14, 6, 16, 9, 11, 8, 2, 10, 3, 4, 5, 20, 19, 17, 12, 7]
24 2.05 [2, 22, 0, 19, 4, 23, 13, 21, 3, 16, 15, 7, 18, 10, 12, 1, 17, 20, 14, 11, 9, 5, 8, 6]
25 2.0454545454545454 [2, 20, 0, 4, 23, 13, 17, 3, 18, 7, 22, 9, 24, 11, 5, 21, 10, 19, 1, 15, 14, 12, 16, 6, 8]
26 2.066666666666667 [21, 7, 25, 2, 24, 11, 9, 23, 22, 18, 14, 0, 10, 4, 12, 20, 3, 16, 15, 1, 17, 5, 6, 19, 8, 13]
27 2.0631578947368423 [2, 23, 0, 7, 26, 14, 25, 21, 4, 18, 19, 5, 20, 3, 22, 11, 13, 24, 1, 16, 15, 17, 9, 8, 6, 10, 12]
28 2.01010101010101 [8, 2, 22, 0, 10, 4, 9, 26, 3, 20, 19, 12, 1, 21, 24, 27, 23, 13, 15, 25, 11, 17, 6, 7, 14, 18, 5, 16]
29 2.0416666666666665 [25, 4, 27, 26, 0, 6, 28, 21, 23, 8, 19, 20, 7, 22, 5, 24, 12, 10, 15, 9, 11, 17, 18, 16, 14, 2, 13, 1, 3]
30 2.019230769230769 [2, 24, 0, 28, 8, 4, 14, 29, 26, 20, 1, 25, 12, 22, 3, 6, 7, 5, 13, 10, 23, 18, 21, 11, 27, 19, 9, 16, 15, 17]
31 2.0462962962962963 [2, 30, 1, 24, 8, 13, 4, 10, 28, 11, 9, 0, 26, 16, 15, 29, 14, 22, 20, 23, 27, 25, 3, 5, 12, 6, 7, 18, 17, 19, 21]
32 2.033613445378151 [9, 25, 3, 21, 1, 13, 11, 19, 29, 23, 15, 5, 0, 31, 27, 26, 14, 28, 4, 30, 16, 7, 8, 17, 6, 2, 12, 20, 24, 10, 22, 18]
33 2.057377049180328 [17, 0, 30, 28, 3, 32, 1, 11, 15, 22, 20, 7, 29, 26, 9, 18, 19, 16, 2, 21, 5, 6, 4, 27, 24, 31, 23, 25, 13, 8, 12, 10, 14]
34 2.0307692307692307 [10, 1, 18, 32, 12, 29, 7, 23, 33, 27, 9, 25, 0, 21, 31, 22, 19, 5, 24, 6, 16, 30, 28, 3, 4, 2, 17, 14, 13, 15, 20, 8, 26, 11]
35 2.045112781954887 [27, 34, 30, 7, 25, 1, 28, 3, 18, 0, 9, 8, 14, 21, 16, 12, 19, 23, 2, 32, 5, 6, 4, 20, 33, 17, 15, 26, 31, 24, 29, 11, 22, 13, 10]
36 2.0676691729323307 [19, 0, 33, 8, 5, 10, 35, 13, 9, 7, 28, 3, 26, 34, 30, 22, 20, 11, 24, 15, 14, 17, 16, 18, 32, 23, 27, 25, 21, 31, 29, 1, 2, 4, 6, 12]
37 2.053030303030303 [36, 34, 30, 35, 32, 1, 10, 19, 0, 22, 31, 20, 21, 33, 15, 3, 13, 24, 23, 27, 8, 25, 29, 12, 11, 28, 2, 17, 26, 18, 16, 14, 6, 7, 4, 9, 5]
38 2.006849315068493 [1, 30, 5, 36, 15, 18, 37, 28, 33, 2, 16, 10, 32, 3, 0, 25, 20, 17, 19, 35, 8, 9, 13, 7, 14, 12, 34, 11, 31, 29, 26, 6, 27, 23, 4, 22, 24, 21]
39 2.0264900662251657 [0, 33, 3, 35, 15, 37, 17, 13, 16, 6, 14, 27, 18, 30, 28, 20, 10, 5, 32, 29, 1, 31, 8, 34, 19, 23, 11, 22, 38, 9, 12, 25, 7, 26, 2, 4, 24, 36, 21]
40 2.031847133757962 [36, 21, 16, 0, 38, 24, 23, 6, 4, 9, 19, 17, 11, 1, 5, 8, 39, 34, 29, 26, 37, 3, 18, 31, 7, 35, 10, 20, 13, 22, 14, 33, 32, 30, 25, 15, 27, 2, 28, 12]
41 2.006289308176101 [6, 11, 7, 27, 38, 1, 16, 0, 24, 25, 40, 21, 35, 14, 32, 26, 39, 15, 30, 37, 28, 12, 3, 23, 36, 19, 13, 2, 31, 5, 4, 9, 34, 10, 33, 8, 18, 29, 20, 22, 17]
42 2.036144578313253 [3, 38, 17, 39, 36, 31, 0, 29, 1, 33, 20, 23, 18, 30, 37, 41, 6, 22, 27, 19, 9, 25, 7, 12, 2, 11, 28, 8, 14, 16, 4, 40, 13, 15, 32, 10, 35, 34, 26, 24, 5, 21]
43 1.9886363636363635 [9, 23, 0, 11, 2, 25, 37, 20, 3, 15, 39, 7, 21, 36, 28, 41, 24, 38, 31, 29, 1, 27, 40, 26, 5, 42, 10, 13, 22, 16, 33, 14, 4, 32, 30, 6, 35, 17, 12, 8, 34, 18, 19]
44 2.0059171597633134 [21, 23, 40, 16, 18, 15, 3, 43, 41, 38, 26, 39, 22, 9, 42, 17, 29, 6, 19, 1, 2, 0, 20, 8, 32, 7, 30, 4, 34, 37, 10, 5, 12, 36, 11, 13, 14, 31, 27, 25, 35, 24, 28, 33]
45 1.9786096256684491 [10, 1, 41, 32, 35, 9, 29, 18, 30, 4, 33, 43, 38, 15, 6, 16, 21, 23, 19, 3, 0, 8, 5, 2, 36, 34, 39, 26, 20, 12, 13, 25, 11, 7, 28, 44, 27, 22, 31, 14, 24, 42, 17, 37, 40]
46 2.005291005291005 [0, 2, 3, 19, 36, 12, 31, 42, 27, 45, 24, 39, 9, 10, 15, 13, 34, 6, 40, 1, 33, 44, 16, 29, 28, 30, 38, 25, 4, 18, 22, 35, 21, 7, 26, 5, 37, 43, 32, 23, 20, 8, 41, 11, 14, 17]
47 1.9947643979057592 [36, 0, 43, 39, 12, 45, 14, 10, 2, 33, 41, 30, 13, 18, 31, 11, 35, 3, 42, 16, 24, 27, 1, 40, 38, 26, 37, 22, 21, 15, 20, 23, 6, 29, 19, 46, 17, 44, 8, 4, 32, 34, 28, 5, 25, 9, 7]
48 2.01010101010101 [22, 1, 37, 25, 43, 4, 46, 10, 29, 14, 31, 32, 13, 7, 0, 34, 40, 2, 47, 5, 39, 41, 16, 15, 19, 11, 38, 12, 42, 9, 20, 44, 6, 45, 30, 27, 36, 28, 18, 23, 26, 24, 21, 17, 35, 33, 8, 3]
49 1.984771573604061 [11, 38, 35, 41, 1, 40, 13, 47, 36, 26, 29, 42, 2, 4, 17, 31, 15, 32, 48, 19, 44, 14, 12, 39, 37, 25, 0, 18, 43, 16, 46, 45, 30, 24, 27, 3, 28, 34, 33, 7, 6, 8, 22, 5, 20, 9, 10, 23, 21]
50 2.004830917874396 [13, 26, 8, 4, 15, 48, 10, 33, 5, 0, 28, 30, 49, 27, 45, 36, 2, 29, 42, 9, 1, 14, 35, 23, 24, 3, 25, 20, 43, 11, 34, 21, 17, 39, 18, 38, 47, 16, 41, 6, 12, 46, 40, 7, 44, 37, 31, 32, 22, 19]
51 1.97196261682243 [41, 49, 0, 30, 5, 33, 7, 28, 20, 47, 2, 29, 13, 31, 10, 50, 34, 17, 1, 39, 16, 23, 43, 15, 18, 19, 24, 9, 26, 14, 12, 27, 40, 25, 48, 11, 46, 42, 45, 44, 8, 4, 22, 37, 36, 32, 21, 38, 3, 35, 6]
52 1.9862385321100917 [2, 7, 23, 4, 50, 0, 15, 29, 25, 47, 24, 11, 32, 31, 42, 48, 16, 49, 3, 51, 5, 13, 40, 34, 41, 37, 36, 14, 26, 33, 9, 30, 12, 1, 18, 45, 44, 43, 21, 17, 46, 27, 20, 8, 28, 10, 6, 38, 19, 22, 39, 35]
53 1.9955156950672646 [2, 41, 24, 48, 27, 7, 50, 0, 16, 19, 11, 29, 14, 22, 4, 12, 25, 1, 28, 43, 15, 42, 3, 9, 49, 8, 45, 26, 44, 52, 34, 38, 31, 21, 18, 51, 47, 13, 40, 39, 17, 10, 46, 5, 36, 35, 30, 37, 33, 32, 20, 23, 6]
54 1.9911894273127753 [50, 53, 4, 49, 2, 32, 21, 47, 19, 48, 35, 24, 0, 52, 25, 30, 42, 33, 37, 18, 46, 29, 3, 31, 9, 34, 51, 23, 44, 7, 39, 22, 1, 45, 8, 11, 41, 40, 20, 38, 5, 36, 12, 16, 10, 17, 6, 14, 43, 15, 27, 13, 26, 28]
55 2.0 [21, 2, 1, 23, 42, 18, 46, 22, 28, 44, 51, 14, 43, 4, 45, 16, 49, 25, 15, 35, 11, 53, 32, 33, 40, 20, 39, 36, 5, 41, 0, 37, 12, 38, 13, 47, 19, 52, 17, 54, 24, 27, 30, 31, 26, 6, 34, 3, 29, 7, 9, 10, 8, 50, 48]
56 2.0 [31, 19, 2, 43, 50, 36, 8, 29, 15, 0, 54, 12, 38, 48, 17, 45, 49, 4, 44, 18, 24, 53, 51, 40, 22, 55, 26, 3, 33, 37, 32, 41, 6, 34, 35, 52, 10, 13, 28, 25, 9, 27, 46, 1, 30, 47, 5, 39, 14, 7, 16, 42, 11, 21, 20, 23]
57 1.9760956175298805 [24, 53, 17, 31, 29, 48, 9, 2, 20, 27, 55, 47, 10, 46, 4, 42, 39, 33, 51, 19, 54, 35, 5, 26, 25, 8, 28, 0, 34, 7, 40, 1, 56, 12, 15, 44, 16, 43, 14, 37, 3, 22, 45, 23, 32, 21, 41, 36, 30, 50, 52, 38, 6, 11, 18, 49, 13]
58 2.0300429184549356 [45, 4, 47, 56, 9, 2, 38, 6, 21, 8, 36, 11, 42, 30, 3, 32, 46, 57, 10, 19, 50, 20, 13, 44, 12, 31, 23, 22, 27, 37, 49, 54, 48, 34, 55, 52, 53, 43, 40, 15, 7, 1, 14, 39, 5, 51, 41, 33, 17, 35, 18, 0, 28, 29, 25, 16, 24, 26]
59 2.0038910505836576 [49, 57, 55, 23, 43, 0, 40, 51, 45, 19, 21, 4, 27, 58, 41, 32, 25, 42, 34, 47, 5, 17, 26, 10, 38, 24, 18, 36, 35, 12, 39, 6, 48, 15, 33, 11, 2, 53, 3, 50, 56, 37, 13, 54, 22, 1, 20, 46, 44, 16, 8, 52, 9, 7, 30, 31, 29, 28, 14]
60 1.9925925925925927 [52, 55, 35, 2, 4, 43, 8, 6, 16, 24, 58, 0, 31, 41, 28, 54, 29, 26, 20, 12, 59, 44, 50, 42, 14, 57, 33, 22, 3, 19, 37, 51, 25, 27, 48, 1, 18, 56, 23, 46, 7, 45, 47, 10, 11, 17, 49, 39, 32, 9, 36, 30, 53, 38, 34, 15, 5, 13, 21, 40]
